EESchema Schematic File Version 4
EELAYER 30 0
EELAYER END
$Descr A4 11693 8268
encoding utf-8
Sheet 1 2
Title ""
Date ""
Rev ""
Comp ""
Comment1 ""
Comment2 ""
Comment3 ""
Comment4 ""
$EndDescr
$Comp
L Device:C_Small C5
U 1 1 5FEB486A
P 3100 1400
F 0 "C5" H 3192 1446 50  0000 L CNN
F 1 "10pF" H 3192 1355 50  0000 L CNN
F 2 "Capacitor_SMD:C_0603_1608Metric" H 3100 1400 50  0001 C CNN
F 3 "~" H 3100 1400 50  0001 C CNN
	1    3100 1400
	1    0    0    -1  
$EndComp
$Comp
L Device:C_Small C6
U 1 1 5FEB665E
P 3800 1400
F 0 "C6" H 3892 1446 50  0000 L CNN
F 1 "10pF" H 3892 1355 50  0000 L CNN
F 2 "Capacitor_SMD:C_0603_1608Metric" H 3800 1400 50  0001 C CNN
F 3 "~" H 3800 1400 50  0001 C CNN
	1    3800 1400
	1    0    0    -1  
$EndComp
Wire Wire Line
	3550 1750 3800 1750
Wire Wire Line
	3800 1750 3800 1500
$Comp
L power:GND #PWR02
U 1 1 5FEDD15F
P 4450 900
F 0 "#PWR02" H 4450 650 50  0001 C CNN
F 1 "GND" H 4455 727 50  0000 C CNN
F 2 "" H 4450 900 50  0001 C CNN
F 3 "" H 4450 900 50  0001 C CNN
	1    4450 900 
	-1   0    0    1   
$EndComp
Wire Wire Line
	4450 900  4450 1000
Wire Wire Line
	3800 1200 3800 1300
Wire Wire Line
	3100 1200 3100 1300
Wire Wire Line
	4450 1700 4450 1750
Wire Wire Line
	4450 1750 4800 1750
Wire Wire Line
	3800 1750 3800 1950
Wire Wire Line
	3800 1950 4800 1950
Connection ~ 3800 1750
Wire Wire Line
	3100 2150 4800 2150
Wire Wire Line
	5000 5050 5000 5300
Wire Wire Line
	5300 1450 5300 1350
Wire Wire Line
	5300 1350 5400 1350
Wire Wire Line
	5400 1350 5400 1450
Wire Wire Line
	5400 1350 5500 1350
Wire Wire Line
	5500 1350 5500 1450
Connection ~ 5400 1350
$Comp
L power:GND #PWR012
U 1 1 5FEE940A
P 5000 5300
F 0 "#PWR012" H 5000 5050 50  0001 C CNN
F 1 "GND" H 5005 5127 50  0000 C CNN
F 2 "" H 5000 5300 50  0001 C CNN
F 3 "" H 5000 5300 50  0001 C CNN
	1    5000 5300
	1    0    0    -1  
$EndComp
$Comp
L Device:C_Small C9
U 1 1 5FEEB18F
P 2150 6300
F 0 "C9" H 2058 6254 50  0000 R CNN
F 1 "1uF" H 2058 6345 50  0000 R CNN
F 2 "Capacitor_SMD:C_0805_2012Metric" H 2150 6300 50  0001 C CNN
F 3 "~" H 2150 6300 50  0001 C CNN
	1    2150 6300
	-1   0    0    1   
$EndComp
$Comp
L Device:C_Small C8
U 1 1 5FEF0366
P 4600 3050
F 0 "C8" H 4508 3004 50  0000 R CNN
F 1 "1uF" H 4508 3095 50  0000 R CNN
F 2 "Capacitor_SMD:C_0805_2012Metric" H 4600 3050 50  0001 C CNN
F 3 "~" H 4600 3050 50  0001 C CNN
	1    4600 3050
	0    -1   -1   0   
$EndComp
$Comp
L Device:C_Small C1
U 1 1 5FEF13F1
P 5900 1050
F 0 "C1" H 5992 1096 50  0000 L CNN
F 1 "100pF" H 5992 1005 50  0000 L CNN
F 2 "Capacitor_SMD:C_0603_1608Metric" H 5900 1050 50  0001 C CNN
F 3 "~" H 5900 1050 50  0001 C CNN
	1    5900 1050
	1    0    0    -1  
$EndComp
$Comp
L Device:C_Small C2
U 1 1 5FF28E95
P 6300 1050
F 0 "C2" H 6392 1096 50  0000 L CNN
F 1 "100pF" H 6392 1005 50  0000 L CNN
F 2 "Capacitor_SMD:C_0603_1608Metric" H 6300 1050 50  0001 C CNN
F 3 "~" H 6300 1050 50  0001 C CNN
	1    6300 1050
	1    0    0    -1  
$EndComp
$Comp
L Device:C_Small C3
U 1 1 5FF29909
P 6700 1050
F 0 "C3" H 6792 1096 50  0000 L CNN
F 1 "100pF" H 6792 1005 50  0000 L CNN
F 2 "Capacitor_SMD:C_0603_1608Metric" H 6700 1050 50  0001 C CNN
F 3 "~" H 6700 1050 50  0001 C CNN
	1    6700 1050
	1    0    0    -1  
$EndComp
Wire Wire Line
	5900 950  6300 950 
Connection ~ 6300 950 
Wire Wire Line
	6300 950  6700 950 
Wire Wire Line
	5900 1150 6300 1150
Wire Wire Line
	6700 1150 6700 1250
Connection ~ 6700 1150
Connection ~ 6300 1150
Wire Wire Line
	6300 1150 6700 1150
$Comp
L power:GND #PWR04
U 1 1 5FF382E0
P 6700 1250
F 0 "#PWR04" H 6700 1000 50  0001 C CNN
F 1 "GND" H 6705 1077 50  0000 C CNN
F 2 "" H 6700 1250 50  0001 C CNN
F 3 "" H 6700 1250 50  0001 C CNN
	1    6700 1250
	1    0    0    -1  
$EndComp
$Comp
L power:+5V #PWR015
U 1 1 5FF3CB32
P 1950 6300
F 0 "#PWR015" H 1950 6150 50  0001 C CNN
F 1 "+5V" H 1965 6473 50  0000 C CNN
F 2 "" H 1950 6300 50  0001 C CNN
F 3 "" H 1950 6300 50  0001 C CNN
	1    1950 6300
	1    0    0    -1  
$EndComp
Wire Wire Line
	1850 6400 1950 6400
Wire Wire Line
	1950 6400 1950 6300
$Comp
L Device:R_Small R3
U 1 1 5FFCA3F7
P 2450 6600
F 0 "R3" V 2650 6600 50  0000 C CNN
F 1 "22" V 2550 6600 50  0000 C CNN
F 2 "Resistor_SMD:R_0603_1608Metric" H 2450 6600 50  0001 C CNN
F 3 "~" H 2450 6600 50  0001 C CNN
	1    2450 6600
	0    -1   -1   0   
$EndComp
$Comp
L Device:R_Small R2
U 1 1 5FFD2DA2
P 6450 3850
F 0 "R2" H 6391 3804 50  0000 R CNN
F 1 "1k" H 6391 3895 50  0000 R CNN
F 2 "Resistor_SMD:R_0603_1608Metric" H 6450 3850 50  0001 C CNN
F 3 "~" H 6450 3850 50  0001 C CNN
	1    6450 3850
	0    1    1    0   
$EndComp
$Comp
L power:GND #PWR010
U 1 1 5FFD8960
P 6950 3550
F 0 "#PWR010" H 6950 3300 50  0001 C CNN
F 1 "GND" H 6955 3377 50  0000 C CNN
F 2 "" H 6950 3550 50  0001 C CNN
F 3 "" H 6950 3550 50  0001 C CNN
	1    6950 3550
	0    -1   -1   0   
$EndComp
$Comp
L Device:R_Small R1
U 1 1 5FFF9AD9
P 6450 3550
F 0 "R1" H 6391 3504 50  0000 R CNN
F 1 "1k" H 6391 3595 50  0000 R CNN
F 2 "Resistor_SMD:R_0603_1608Metric" H 6450 3550 50  0001 C CNN
F 3 "~" H 6450 3550 50  0001 C CNN
	1    6450 3550
	0    1    1    0   
$EndComp
$Comp
L Device:LED_Small D1
U 1 1 5FFFB158
P 6750 3550
F 0 "D1" V 6796 3482 50  0000 R CNN
F 1 "PROG" V 6705 3482 50  0000 R CNN
F 2 "LED_SMD:LED_0603_1608Metric" V 6750 3550 50  0001 C CNN
F 3 "~" V 6750 3550 50  0001 C CNN
	1    6750 3550
	-1   0    0    1   
$EndComp
Wire Wire Line
	6000 3850 6350 3850
$Comp
L Device:C_Small C4
U 1 1 6003253F
P 4450 1100
F 0 "C4" H 4542 1146 50  0000 L CNN
F 1 "100pF" H 4542 1055 50  0000 L CNN
F 2 "Capacitor_SMD:C_0603_1608Metric" H 4450 1100 50  0001 C CNN
F 3 "~" H 4450 1100 50  0001 C CNN
	1    4450 1100
	1    0    0    -1  
$EndComp
Wire Wire Line
	4450 1200 4450 1300
$Comp
L power:GND #PWR07
U 1 1 5F151EF7
P 4400 2350
F 0 "#PWR07" H 4400 2100 50  0001 C CNN
F 1 "GND" H 4405 2177 50  0000 C CNN
F 2 "" H 4400 2350 50  0001 C CNN
F 3 "" H 4400 2350 50  0001 C CNN
	1    4400 2350
	0    1    1    0   
$EndComp
Wire Wire Line
	4400 2350 4500 2350
Wire Wire Line
	4700 2350 4800 2350
$Comp
L power:GND #PWR013
U 1 1 5F163034
P 2150 6100
F 0 "#PWR013" H 2150 5850 50  0001 C CNN
F 1 "GND" H 2155 5927 50  0000 C CNN
F 2 "" H 2150 6100 50  0001 C CNN
F 3 "" H 2150 6100 50  0001 C CNN
	1    2150 6100
	-1   0    0    1   
$EndComp
Wire Wire Line
	2150 6100 2150 6200
Wire Wire Line
	4400 2550 4800 2550
Wire Wire Line
	4400 3050 4500 3050
Wire Wire Line
	4700 3050 4800 3050
Wire Wire Line
	4800 2750 4400 2750
Wire Wire Line
	4800 2850 4400 2850
Text Label 4500 2750 0    50   ~ 0
USBD_P
Text Label 4500 2850 0    50   ~ 0
USBD_N
Wire Wire Line
	2550 6600 2800 6600
Text Label 2650 6700 0    50   ~ 0
USBD_N
Wire Notes Line
	1000 5700 1000 7500
Text Notes 1050 5800 0    50   ~ 0
USB Connector
Text Label 4500 1750 0    50   ~ 0
~RST
$Sheet
S 7900 1600 750  4700
U 5EB52372
F0 "keys" 50
F1 "mm60-keys.sch" 50
F2 "LED1" I L 7900 3050 50 
F3 "LED2" I L 7900 3150 50 
F4 "LED3" I L 7900 3250 50 
F5 "ROW1" U L 7900 1850 50 
F6 "ROW0" U L 7900 1750 50 
F7 "ROW2" U L 7900 1950 50 
F8 "ROW3" U L 7900 2050 50 
F9 "ROW4" U L 7900 3950 50 
F10 "COL0" U L 7900 2450 50 
F11 "COL1" U L 7900 2750 50 
F12 "COL2" U L 7900 2650 50 
F13 "COL3" U L 7900 2350 50 
F14 "COL4" U L 7900 2250 50 
F15 "COL5" U L 7900 2150 50 
F16 "COL6" U L 7900 3650 50 
F17 "COL7" U L 7900 3350 50 
F18 "COL8" U L 7900 4650 50 
F19 "COL9" U L 7900 4550 50 
F20 "COL10" U L 7900 4450 50 
F21 "COL11" U L 7900 4350 50 
F22 "COL12" U L 7900 4250 50 
F23 "COL13" U L 7900 4150 50 
F24 "LED4" I L 7900 2950 50 
F25 "LED5" I L 7900 3450 50 
$EndSheet
Text Label 2650 6600 0    50   ~ 0
USBD_P
Wire Wire Line
	2550 6700 2800 6700
$Comp
L Device:R_Small R4
U 1 1 5FFA63E6
P 2450 6700
F 0 "R4" V 2254 6700 50  0000 C CNN
F 1 "22" V 2345 6700 50  0000 C CNN
F 2 "Resistor_SMD:R_0603_1608Metric" H 2450 6700 50  0001 C CNN
F 3 "~" H 2450 6700 50  0001 C CNN
	1    2450 6700
	0    -1   -1   0   
$EndComp
Wire Wire Line
	1950 6400 2150 6400
Connection ~ 1950 6400
Wire Notes Line
	1000 5700 3050 5700
Wire Notes Line
	3050 5700 3050 7500
Wire Notes Line
	3050 7500 1000 7500
$Comp
L power:+5V #PWR01
U 1 1 5F393364
P 6300 800
F 0 "#PWR01" H 6300 650 50  0001 C CNN
F 1 "+5V" H 6315 973 50  0000 C CNN
F 2 "" H 6300 800 50  0001 C CNN
F 3 "" H 6300 800 50  0001 C CNN
	1    6300 800 
	1    0    0    -1  
$EndComp
$Comp
L power:+5V #PWR05
U 1 1 5F394FB2
P 5400 1300
F 0 "#PWR05" H 5400 1150 50  0001 C CNN
F 1 "+5V" H 5415 1473 50  0000 C CNN
F 2 "" H 5400 1300 50  0001 C CNN
F 3 "" H 5400 1300 50  0001 C CNN
	1    5400 1300
	1    0    0    -1  
$EndComp
Wire Wire Line
	5400 1300 5400 1350
Wire Wire Line
	6300 800  6300 950 
$Comp
L power:+5V #PWR08
U 1 1 5F3A4EC8
P 4400 2550
F 0 "#PWR08" H 4400 2400 50  0001 C CNN
F 1 "+5V" H 4415 2723 50  0000 C CNN
F 2 "" H 4400 2550 50  0001 C CNN
F 3 "" H 4400 2550 50  0001 C CNN
	1    4400 2550
	0    -1   -1   0   
$EndComp
$Comp
L power:GND #PWR018
U 1 1 5F3C0997
P 1550 7150
F 0 "#PWR018" H 1550 6900 50  0001 C CNN
F 1 "GND" H 1555 6977 50  0000 C CNN
F 2 "" H 1550 7150 50  0001 C CNN
F 3 "" H 1550 7150 50  0001 C CNN
	1    1550 7150
	1    0    0    -1  
$EndComp
$Comp
L power:GND #PWR09
U 1 1 5F41EE65
P 4400 3050
F 0 "#PWR09" H 4400 2800 50  0001 C CNN
F 1 "GND" H 4405 2877 50  0000 C CNN
F 2 "" H 4400 3050 50  0001 C CNN
F 3 "" H 4400 3050 50  0001 C CNN
	1    4400 3050
	0    1    1    0   
$EndComp
$Comp
L Mechanical:MountingHole H3
U 1 1 5EB70FB3
P 1400 5000
F 0 "H3" H 1500 5046 50  0000 L CNN
F 1 "SideHole" H 1500 4955 50  0000 L CNN
F 2 "Holes:PKRHSL" H 1400 5000 50  0001 C CNN
F 3 "~" H 1400 5000 50  0001 C CNN
	1    1400 5000
	1    0    0    -1  
$EndComp
$Comp
L Mechanical:MountingHole H5
U 1 1 5EB72BC9
P 1400 5200
F 0 "H5" H 1500 5246 50  0000 L CNN
F 1 "SideHole" H 1500 5155 50  0000 L CNN
F 2 "Holes:PKRHSL" H 1400 5200 50  0001 C CNN
F 3 "~" H 1400 5200 50  0001 C CNN
	1    1400 5200
	1    0    0    -1  
$EndComp
$Comp
L Mechanical:MountingHole H1
U 1 1 5EB74BCF
P 2200 4550
F 0 "H1" H 2300 4596 50  0000 L CNN
F 1 "MountingHole" H 2300 4505 50  0000 L CNN
F 2 "Holes:PKRH" H 2200 4550 50  0001 C CNN
F 3 "~" H 2200 4550 50  0001 C CNN
	1    2200 4550
	1    0    0    -1  
$EndComp
$Comp
L Mechanical:MountingHole H2
U 1 1 5EB76A99
P 2200 4750
F 0 "H2" H 2300 4796 50  0000 L CNN
F 1 "MountingHole" H 2300 4705 50  0000 L CNN
F 2 "Holes:PKRH" H 2200 4750 50  0001 C CNN
F 3 "~" H 2200 4750 50  0001 C CNN
	1    2200 4750
	1    0    0    -1  
$EndComp
$Comp
L Mechanical:MountingHole H4
U 1 1 5EB78652
P 2200 5000
F 0 "H4" H 2300 5046 50  0000 L CNN
F 1 "MountingHole" H 2300 4955 50  0000 L CNN
F 2 "Holes:PKRHC" H 2200 5000 50  0001 C CNN
F 3 "~" H 2200 5000 50  0001 C CNN
	1    2200 5000
	1    0    0    -1  
$EndComp
$Comp
L Device:Crystal_GND24_Small Y1
U 1 1 5EBC0AA1
P 3450 1750
F 0 "Y1" H 3594 1796 50  0000 L CNN
F 1 "16MHz" H 3594 1705 50  0000 L CNN
F 2 "Crystal:Crystal_SMD_3225-4Pin_3.2x2.5mm" H 3450 1750 50  0001 C CNN
F 3 "~" H 3450 1750 50  0001 C CNN
	1    3450 1750
	1    0    0    -1  
$EndComp
Wire Wire Line
	3100 1500 3100 1750
Wire Wire Line
	3350 1750 3100 1750
Connection ~ 3100 1750
Wire Wire Line
	3100 1750 3100 2150
$Comp
L power:GND #PWR03
U 1 1 5EBCD15E
P 3450 1200
F 0 "#PWR03" H 3450 950 50  0001 C CNN
F 1 "GND" H 3455 1027 50  0000 C CNN
F 2 "" H 3450 1200 50  0001 C CNN
F 3 "" H 3450 1200 50  0001 C CNN
	1    3450 1200
	-1   0    0    1   
$EndComp
$Comp
L power:GND #PWR06
U 1 1 5EBCF093
P 3450 1900
F 0 "#PWR06" H 3450 1650 50  0001 C CNN
F 1 "GND" H 3455 1727 50  0000 C CNN
F 2 "" H 3450 1900 50  0001 C CNN
F 3 "" H 3450 1900 50  0001 C CNN
	1    3450 1900
	1    0    0    -1  
$EndComp
Wire Wire Line
	3450 1850 3450 1900
Wire Wire Line
	3450 1650 3450 1200
Wire Wire Line
	3100 1200 3450 1200
Connection ~ 3450 1200
Wire Wire Line
	3450 1200 3800 1200
$Comp
L Switch:SW_Push SW1
U 1 1 5FEA6D22
P 4450 1500
F 0 "SW1" V 4496 1452 50  0000 R CNN
F 1 "RESET" V 4405 1452 50  0000 R CNN
F 2 "Button_Switch_SMD:SW_SPST_TL3342" H 4450 1700 50  0001 C CNN
F 3 "~" H 4450 1700 50  0001 C CNN
	1    4450 1500
	0    -1   -1   0   
$EndComp
$Comp
L power:GND #PWR011
U 1 1 5ECCC29E
P 6650 3850
F 0 "#PWR011" H 6650 3600 50  0001 C CNN
F 1 "GND" H 6655 3677 50  0000 C CNN
F 2 "" H 6650 3850 50  0001 C CNN
F 3 "" H 6650 3850 50  0001 C CNN
	1    6650 3850
	0    -1   -1   0   
$EndComp
Wire Wire Line
	6000 3550 6350 3550
Wire Wire Line
	6550 3550 6650 3550
Wire Wire Line
	6850 3550 6950 3550
Wire Wire Line
	6550 3850 6650 3850
Wire Wire Line
	6000 1750 7900 1750
Wire Wire Line
	6000 1850 7900 1850
Wire Wire Line
	6000 1950 7900 1950
Wire Wire Line
	6000 2050 7900 2050
Wire Wire Line
	6000 2150 7900 2150
Wire Wire Line
	6000 2250 7900 2250
Wire Wire Line
	6000 2350 7900 2350
Wire Wire Line
	6000 2450 7900 2450
Wire Wire Line
	6000 4650 7900 4650
Wire Wire Line
	6000 4550 7900 4550
Wire Wire Line
	6000 4450 7900 4450
Wire Wire Line
	6000 4350 7900 4350
Wire Wire Line
	6000 4250 7900 4250
Wire Wire Line
	6000 4150 7900 4150
Wire Wire Line
	6000 2650 7900 2650
Wire Wire Line
	6000 2750 7900 2750
Wire Wire Line
	6000 3950 7900 3950
Wire Wire Line
	6000 3650 7900 3650
Wire Wire Line
	7900 3450 6000 3450
Wire Wire Line
	7900 3350 6000 3350
Wire Wire Line
	6000 2950 7900 2950
Wire Wire Line
	6000 3050 7900 3050
Text Label 4550 6350 0    50   ~ 0
~RST
Wire Wire Line
	4550 6350 4750 6350
$Comp
L Mechanical:MountingHole H6
U 1 1 5ED9B8C3
P 2200 5200
F 0 "H6" H 2300 5246 50  0000 L CNN
F 1 "MountingHole" H 2300 5155 50  0000 L CNN
F 2 "Holes:PKRH" H 2200 5200 50  0001 C CNN
F 3 "~" H 2200 5200 50  0001 C CNN
	1    2200 5200
	1    0    0    -1  
$EndComp
Text Label 6300 1850 0    50   ~ 0
SCLK
Text Label 6300 1950 0    50   ~ 0
MOSI
Text Label 6300 2050 0    50   ~ 0
MISO
$Comp
L Connector_Generic:Conn_02x03_Odd_Even J1
U 1 1 5EE3C26F
P 4950 6250
F 0 "J1" H 5000 6567 50  0000 C CNN
F 1 "ISP PROG" H 5000 6476 50  0000 C CNN
F 2 "Connector_PinHeader_2.54mm:PinHeader_2x03_P2.54mm_Vertical" H 4950 6250 50  0001 C CNN
F 3 "~" H 4950 6250 50  0001 C CNN
	1    4950 6250
	1    0    0    -1  
$EndComp
$Comp
L power:+5V #PWR014
U 1 1 5EE4B08A
P 5350 6150
F 0 "#PWR014" H 5350 6000 50  0001 C CNN
F 1 "+5V" V 5365 6278 50  0000 L CNN
F 2 "" H 5350 6150 50  0001 C CNN
F 3 "" H 5350 6150 50  0001 C CNN
	1    5350 6150
	0    1    1    0   
$EndComp
Wire Wire Line
	5250 6150 5350 6150
$Comp
L power:GND #PWR016
U 1 1 5EE5058C
P 5350 6350
F 0 "#PWR016" H 5350 6100 50  0001 C CNN
F 1 "GND" H 5355 6177 50  0000 C CNN
F 2 "" H 5350 6350 50  0001 C CNN
F 3 "" H 5350 6350 50  0001 C CNN
	1    5350 6350
	0    -1   -1   0   
$EndComp
Wire Wire Line
	5250 6350 5350 6350
Text Label 4000 6150 0    50   ~ 0
MISO
Text Label 4000 6250 0    50   ~ 0
SCLK
Text Label 5900 6250 0    50   ~ 0
MOSI
Wire Notes Line
	6300 5650 3750 5650
Text Notes 3800 5750 0    50   ~ 0
Disaster Recovery
$Comp
L Connector:USB_B_Mini J2
U 1 1 5EEEB756
P 1550 6600
F 0 "J2" H 1607 7067 50  0000 C CNN
F 1 "USB_B_Mini" H 1607 6976 50  0000 C CNN
F 2 "Hirose:ZX62D-B-5PA8" H 1700 6550 50  0001 C CNN
F 3 "~" H 1700 6550 50  0001 C CNN
	1    1550 6600
	1    0    0    -1  
$EndComp
Wire Wire Line
	1850 6600 2350 6600
Wire Wire Line
	1850 6700 2350 6700
Wire Wire Line
	1550 7000 1550 7050
Wire Wire Line
	1550 7050 1450 7050
Wire Wire Line
	1450 7050 1450 7000
Connection ~ 1550 7050
Wire Wire Line
	1550 7050 1550 7150
Wire Notes Line
	1000 5400 3050 5400
Wire Notes Line
	3050 5400 3050 4250
Wire Notes Line
	3050 4250 1000 4250
Wire Notes Line
	1000 4250 1000 5400
Text Notes 1100 4400 0    50   ~ 0
GH60 Compatible Holes
$Comp
L Device:C_Small C7
U 1 1 5FF6B746
P 4600 2350
F 0 "C7" V 4450 2300 50  0000 L CNN
F 1 "100pF" V 4700 2250 50  0000 L CNN
F 2 "Capacitor_SMD:C_0603_1608Metric" H 4600 2350 50  0001 C CNN
F 3 "~" H 4600 2350 50  0001 C CNN
	1    4600 2350
	0    1    1    0   
$EndComp
Text Label 2050 6600 0    50   ~ 0
UC_P
Text Label 2050 6700 0    50   ~ 0
UC_N
NoConn ~ 1850 6800
Wire Wire Line
	4000 6150 4750 6150
Wire Wire Line
	4000 6250 4750 6250
Wire Wire Line
	5250 6250 6050 6250
Wire Notes Line
	6300 6550 6300 5650
Wire Notes Line
	3750 6550 6300 6550
Wire Notes Line
	3750 5650 3750 6550
Wire Wire Line
	5300 5050 5000 5050
Wire Wire Line
	5400 5050 5300 5050
Connection ~ 5300 5050
$Comp
L MCU_Microchip_ATmega:ATmega32U4-AU U1
U 1 1 5FE9BA24
P 5400 3250
F 0 "U1" H 5400 1361 50  0000 C CNN
F 1 "ATmega32U4-AU" H 5400 1270 50  0000 C CNN
F 2 "Package_QFP:TQFP-44_10x10mm_P0.8mm" H 5400 3250 50  0001 C CIN
F 3 "http://ww1.microchip.com/downloads/en/DeviceDoc/Atmel-7766-8-bit-AVR-ATmega16U4-32U4_Datasheet.pdf" H 5400 3250 50  0001 C CNN
	1    5400 3250
	1    0    0    -1  
$EndComp
Wire Wire Line
	6000 3250 7900 3250
Wire Wire Line
	6000 3150 7900 3150
$Comp
L Mechanical:MountingHole H7
U 1 1 5EF75794
P 1400 3500
F 0 "H7" H 1500 3546 50  0000 L CNN
F 1 "MountingHole" H 1500 3455 50  0000 L CNN
F 2 "Holes:MXST" H 1400 3500 50  0001 C CNN
F 3 "~" H 1400 3500 50  0001 C CNN
	1    1400 3500
	1    0    0    -1  
$EndComp
$Comp
L Mechanical:MountingHole H8
U 1 1 5EF77DC1
P 1400 3750
F 0 "H8" H 1500 3796 50  0000 L CNN
F 1 "MountingHole" H 1500 3705 50  0000 L CNN
F 2 "Holes:MXST" H 1400 3750 50  0001 C CNN
F 3 "~" H 1400 3750 50  0001 C CNN
	1    1400 3750
	1    0    0    -1  
$EndComp
Wire Notes Line
	1000 3950 3050 3950
Wire Notes Line
	3050 3950 3050 3150
Wire Notes Line
	3050 3150 1000 3150
Wire Notes Line
	1000 3150 1000 3950
Text Notes 1100 3300 0    50   ~ 0
Extra Space Bar Holes\n
$EndSCHEMATC
