.title KiCad schematic
U1 /keys/COL7 +5V /USBDN /USBDP GND Net-_C6-Pad2_ +5V /keys/LED1 /keys/LED2 /keys/LED3 /keys/ROW0 /keys/ROW4 /~RST +5V GND Net-_C2-Pad2_ Net-_C3-Pad2_ /keys/COL2 /keys/COL3 /UARTRX /UARTTX /keys/COL5 GND +5V /keys/COL4 Net-_R6-Pad2_ /keys/COL6 /keys/ROW1 /keys/ROW2 /keys/ROW3 /keys/COL0 /keys/COL1 Net-_R5-Pad2_ +5V GND /keys/COL13 /keys/COL12 /keys/COL11 /keys/COL10 /keys/COL9 /keys/COL8 Net-_C5-Pad1_ GND +5V ATmega32U4-AU
C2 GND Net-_C2-Pad2_ 10pF
C3 GND Net-_C3-Pad2_ 10pF
C1 +5V GND 1uF
C6 GND Net-_C6-Pad2_ 1uF
C7 +5V GND 100pF
C8 +5V GND 100pF
C9 +5V GND 100pF
C5 Net-_C5-Pad1_ GND 100pF
R2 /USBDN Net-_J1-PadA7_ 22
R5 GND Net-_R5-Pad2_ 1k
R6 Net-_D1-Pad2_ Net-_R6-Pad2_ 1k
D1 GND Net-_D1-Pad2_ LED_Small
C4 GND Net-_C4-Pad2_ 100pF
J1 GND +5V Net-_J1-PadA5_ Net-_J1-PadA6_ Net-_J1-PadA7_ NC_01 +5V GND GND +5V Net-_J1-PadB5_ Net-_J1-PadA6_ Net-_J1-PadA7_ NC_02 +5V GND GND USB_C_Receptacle_USB2.0
R1 /USBDP Net-_J1-PadA6_ 22
R4 Net-_J1-PadB5_ GND 5.1k
R3 GND Net-_J1-PadA5_ 5.1k
H1 MountingHole
H2 MountingHole
H3 MountingHole
H4 MountingHole
H5 MountingHole
Y1 Net-_C2-Pad2_ GND Net-_C3-Pad2_ GND 16MHz
SW1 /~RST Net-_C4-Pad2_ SW_Push
J2 /~RST GND /UARTRX /UARTTX +5V Conn_01x05
MX0:0 Net-_D0:0-Pad2_ /keys/ROW0 MX-NoLED
D0:0 /keys/COL0 Net-_D0:0-Pad2_ D_Small
MX0:1 Net-_D0:1-Pad2_ /keys/ROW0 MX-NoLED
D0:1 /keys/COL1 Net-_D0:1-Pad2_ D_Small
MX0:2 Net-_D0:2-Pad2_ /keys/ROW0 MX-NoLED
D0:2 /keys/COL2 Net-_D0:2-Pad2_ D_Small
MX0:3 Net-_D0:3-Pad2_ /keys/ROW0 MX-NoLED
D0:3 /keys/COL3 Net-_D0:3-Pad2_ D_Small
D0:4 /keys/COL4 Net-_D0:4-Pad2_ D_Small
D0:5 /keys/COL5 Net-_D0:5-Pad2_ D_Small
D0:6 /keys/COL6 Net-_D0:6-Pad2_ D_Small
D0:7 /keys/COL7 Net-_D0:7-Pad2_ D_Small
MX0:8 Net-_D0:8-Pad2_ /keys/ROW0 MX-NoLED
D0:8 /keys/COL8 Net-_D0:8-Pad2_ D_Small
MX0:9 Net-_D0:9-Pad2_ /keys/ROW0 MX-NoLED
D0:9 /keys/COL9 Net-_D0:9-Pad2_ D_Small
MX0:10 Net-_D0:10-Pad2_ /keys/ROW0 MX-NoLED
D0:10 /keys/COL10 Net-_D0:10-Pad2_ D_Small
MX0:11 Net-_D0:11-Pad2_ /keys/ROW0 MX-NoLED
D0:11 /keys/COL11 Net-_D0:11-Pad2_ D_Small
MX0:12 Net-_D0:12-Pad2_ /keys/ROW0 MX-NoLED
D0:12 /keys/COL12 Net-_D0:12-Pad2_ D_Small
MX1:0 Net-_D1:0-Pad2_ /keys/ROW1 MX-NoLED
D1:0 /keys/COL0 Net-_D1:0-Pad2_ D_Small
MX1:1 Net-_D1:1-Pad2_ /keys/ROW1 MX-NoLED
D1:1 /keys/COL1 Net-_D1:1-Pad2_ D_Small
MX1:2 Net-_D1:2-Pad2_ /keys/ROW1 MX-NoLED
D1:2 /keys/COL2 Net-_D1:2-Pad2_ D_Small
MX1:3 Net-_D1:3-Pad2_ /keys/ROW1 MX-NoLED
D1:3 /keys/COL3 Net-_D1:3-Pad2_ D_Small
MX1:4 Net-_D1:4-Pad2_ /keys/ROW1 MX-NoLED
D1:4 /keys/COL4 Net-_D1:4-Pad2_ D_Small
MX1:5 Net-_D1:5-Pad2_ /keys/ROW1 MX-NoLED
D1:5 /keys/COL5 Net-_D1:5-Pad2_ D_Small
MX1:6 Net-_D1:6-Pad2_ /keys/ROW1 MX-NoLED
D1:6 /keys/COL6 Net-_D1:6-Pad2_ D_Small
MX1:7 Net-_D1:7-Pad2_ /keys/ROW1 MX-NoLED
D1:7 /keys/COL7 Net-_D1:7-Pad2_ D_Small
MX1:8 Net-_D1:8-Pad2_ /keys/ROW1 MX-NoLED
D1:8 /keys/COL8 Net-_D1:8-Pad2_ D_Small
MX1:9 Net-_D1:9-Pad2_ /keys/ROW1 MX-NoLED
D1:9 /keys/COL9 Net-_D1:9-Pad2_ D_Small
MX1:10 Net-_D1:10-Pad2_ /keys/ROW1 MX-NoLED
D1:10 /keys/COL10 Net-_D1:10-Pad2_ D_Small
MX1:11 Net-_D1:11-Pad2_ /keys/ROW1 MX-NoLED
D1:11 /keys/COL11 Net-_D1:11-Pad2_ D_Small
MX1:12 Net-_D1:12-Pad2_ /keys/ROW1 MX-NoLED
D1:12 /keys/COL12 Net-_D1:12-Pad2_ D_Small
MX2:0 Net-_D2:0-Pad2_ /keys/ROW2 MX-NoLED
D2:0 /keys/COL0 Net-_D2:0-Pad2_ D_Small
MX2:1 Net-_D2:1-Pad2_ /keys/ROW2 MX-NoLED
D2:1 /keys/COL1 Net-_D2:1-Pad2_ D_Small
MX2:2 Net-_D2:2-Pad2_ /keys/ROW2 MX-NoLED
D2:2 /keys/COL2 Net-_D2:2-Pad2_ D_Small
MX2:3 Net-_D2:3-Pad2_ /keys/ROW2 MX-NoLED
D2:3 /keys/COL3 Net-_D2:3-Pad2_ D_Small
MX2:4 Net-_D2:4-Pad2_ /keys/ROW2 MX-NoLED
D2:4 /keys/COL4 Net-_D2:4-Pad2_ D_Small
MX2:5 Net-_D2:5-Pad2_ /keys/ROW2 MX-NoLED
D2:5 /keys/COL5 Net-_D2:5-Pad2_ D_Small
MX2:6 Net-_D2:6-Pad2_ /keys/ROW2 MX-NoLED
D2:6 /keys/COL6 Net-_D2:6-Pad2_ D_Small
MX2:7 Net-_D2:7-Pad2_ /keys/ROW2 MX-NoLED
D2:7 /keys/COL7 Net-_D2:7-Pad2_ D_Small
MX2:8 Net-_D2:8-Pad2_ /keys/ROW2 MX-NoLED
D2:8 /keys/COL8 Net-_D2:8-Pad2_ D_Small
MX2:9 Net-_D2:9-Pad2_ /keys/ROW2 MX-NoLED
D2:9 /keys/COL9 Net-_D2:9-Pad2_ D_Small
MX2:10 Net-_D2:10-Pad2_ /keys/ROW2 MX-NoLED
D2:10 /keys/COL10 Net-_D2:10-Pad2_ D_Small
MX2:11 Net-_D2:11-Pad2_ /keys/ROW2 MX-NoLED
D2:11 /keys/COL11 Net-_D2:11-Pad2_ D_Small
MX2:12 Net-_D2:12-Pad2_ /keys/ROW2 MX-NoLED
D2:12 /keys/COL12 Net-_D2:12-Pad2_ D_Small
MX3:0 Net-_D3:0-Pad2_ /keys/ROW3 MX-NoLED
D3:0 /keys/COL0 Net-_D3:0-Pad2_ D_Small
MX3:1 Net-_D3:1-Pad2_ /keys/ROW3 MX-NoLED
D3:1 /keys/COL1 Net-_D3:1-Pad2_ D_Small
MX3:2 Net-_D3:2-Pad2_ /keys/ROW3 MX-NoLED
D3:2 /keys/COL2 Net-_D3:2-Pad2_ D_Small
MX3:3 Net-_D3:3-Pad2_ /keys/ROW3 MX-NoLED
D3:3 /keys/COL3 Net-_D3:3-Pad2_ D_Small
MX3:4 Net-_D3:4-Pad2_ /keys/ROW3 MX-NoLED
D3:4 /keys/COL4 Net-_D3:4-Pad2_ D_Small
MX3:5 Net-_D3:5-Pad2_ /keys/ROW3 MX-NoLED
D3:5 /keys/COL5 Net-_D3:5-Pad2_ D_Small
MX3:7 Net-_D3:7-Pad2_ /keys/ROW3 MX-NoLED
D3:7 /keys/COL7 Net-_D3:7-Pad2_ D_Small
MX3:8 Net-_D3:8-Pad2_ /keys/ROW3 MX-NoLED
D3:8 /keys/COL8 Net-_D3:8-Pad2_ D_Small
MX3:9 Net-_D3:9-Pad2_ /keys/ROW3 MX-NoLED
D3:9 /keys/COL9 Net-_D3:9-Pad2_ D_Small
MX3:10 Net-_D3:10-Pad2_ /keys/ROW3 MX-NoLED
D3:10 /keys/COL10 Net-_D3:10-Pad2_ D_Small
MX3:11 Net-_D3:11-Pad2_ /keys/ROW3 MX-NoLED
D3:11 /keys/COL11 Net-_D3:11-Pad2_ D_Small
MX3:12 Net-_D3:12-Pad2_ /keys/ROW3 MX-NoLED
D3:12 /keys/COL12 Net-_D3:12-Pad2_ D_Small
MX4:0 Net-_D4:0-Pad2_ /keys/ROW4 MX-NoLED
D4:0 /keys/COL0 Net-_D4:0-Pad2_ D_Small
MX4:1 Net-_D4:1-Pad2_ /keys/ROW4 MX-NoLED
D4:1 /keys/COL1 Net-_D4:1-Pad2_ D_Small
MX4:2 Net-_D4:2-Pad2_ /keys/ROW4 MX-NoLED
D4:2 /keys/COL2 Net-_D4:2-Pad2_ D_Small
MX4:4 Net-_D4:4-Pad2_ /keys/ROW4 MX-NoLED
D4:4 /keys/COL4 Net-_D4:4-Pad2_ D_Small
MX4:6 Net-_D4:6-Pad2_ /keys/ROW4 MX-NoLED
D4:6 /keys/COL6 Net-_D4:6-Pad2_ D_Small
MX4:8 Net-_D4:8-Pad2_ /keys/ROW4 MX-NoLED
D4:8 /keys/COL8 Net-_D4:8-Pad2_ D_Small
MX4:9 Net-_D4:9-Pad2_ /keys/ROW4 MX-NoLED
D4:9 /keys/COL9 Net-_D4:9-Pad2_ D_Small
MX4:10 Net-_D4:10-Pad2_ /keys/ROW4 MX-NoLED
D4:10 /keys/COL10 Net-_D4:10-Pad2_ D_Small
MX4:11 Net-_D4:11-Pad2_ /keys/ROW4 MX-NoLED
D4:11 /keys/COL11 Net-_D4:11-Pad2_ D_Small
MX4:12 Net-_D4:12-Pad2_ /keys/ROW4 MX-NoLED
D4:12 /keys/COL12 Net-_D4:12-Pad2_ D_Small
MX0:13 Net-_D0:13-Pad2_ /keys/ROW0 MX-NoLED
D0:13 /keys/COL13 Net-_D0:13-Pad2_ D_Small
MX1:13 Net-_D1:13-Pad2_ /keys/ROW1 MX-NoLED
D1:13 /keys/COL13 Net-_D1:13-Pad2_ D_Small
MX2:13 Net-_D2:13-Pad2_ /keys/ROW2 MX-NoLED
D2:13 /keys/COL13 Net-_D2:13-Pad2_ D_Small
MX3:13 Net-_D3:13-Pad2_ /keys/ROW3 MX-NoLED
D3:13 /keys/COL13 Net-_D3:13-Pad2_ D_Small
MX4:13 Net-_D4:13-Pad2_ /keys/ROW4 MX-NoLED
D4:13 /keys/COL13 Net-_D4:13-Pad2_ D_Small
MX0:4 Net-_D0:4-Pad2_ /keys/ROW0 MX-NoLED
MX0:5 Net-_D0:5-Pad2_ /keys/ROW0 Net-_MX0:5-Pad3_ GND MX-LED
MX0:6 Net-_D0:6-Pad2_ /keys/ROW0 Net-_MX0:6-Pad3_ GND MX-LED
MX0:7 Net-_D0:7-Pad2_ /keys/ROW0 Net-_MX0:7-Pad3_ GND MX-LED
R9 Net-_MX0:7-Pad3_ /keys/LED3 390
R8 Net-_MX0:6-Pad3_ /keys/LED2 390
R7 Net-_MX0:5-Pad3_ /keys/LED1 390
.end
