EESchema Schematic File Version 4
EELAYER 30 0
EELAYER END
$Descr A3 16535 11693
encoding utf-8
Sheet 2 2
Title ""
Date ""
Rev ""
Comp ""
Comment1 ""
Comment2 ""
Comment3 ""
Comment4 ""
$EndDescr
$Comp
L MxSwitch:MX-NoLED MX1
U 1 1 5FA380C7
P 1950 2200
F 0 "MX1" H 1822 2145 60  0000 R CNN
F 1 "MX0:0" H 1822 2219 20  0000 R CNN
F 2 "CherryOnly:MXOnly-1.5U-NoLED" H 1325 2175 60  0001 C CNN
F 3 "" H 1325 2175 60  0001 C CNN
	1    1950 2200
	-1   0    0    1   
$EndComp
Wire Wire Line
	1700 2250 1800 2250
$Comp
L Device:D_Small D2
U 1 1 5FA3887E
P 1600 2250
F 0 "D2" H 1600 2350 50  0000 C CNN
F 1 "D0:0" H 1600 2150 50  0000 C CNN
F 2 "Diode_SMD:D_SOD-123" V 1600 2250 50  0001 C CNN
F 3 "~" V 1600 2250 50  0001 C CNN
	1    1600 2250
	1    0    0    -1  
$EndComp
Wire Wire Line
	1500 2250 1450 2250
Wire Wire Line
	2000 2050 2000 2000
$Comp
L MxSwitch:MX-NoLED MX2
U 1 1 5FA3DDAC
P 2950 2200
F 0 "MX2" H 2822 2145 60  0000 R CNN
F 1 "MX0:1" H 2822 2219 20  0000 R CNN
F 2 "CherryOnly:MXOnly-1U-NoLED" H 2325 2175 60  0001 C CNN
F 3 "" H 2325 2175 60  0001 C CNN
	1    2950 2200
	-1   0    0    1   
$EndComp
Wire Wire Line
	2700 2250 2800 2250
$Comp
L Device:D_Small D3
U 1 1 5FA3DDB3
P 2600 2250
F 0 "D3" H 2600 2363 50  0000 C CNN
F 1 "D0:1" H 2600 2150 50  0000 C CNN
F 2 "Diode_SMD:D_SOD-123" V 2600 2250 50  0001 C CNN
F 3 "~" V 2600 2250 50  0001 C CNN
	1    2600 2250
	1    0    0    -1  
$EndComp
Wire Wire Line
	2500 2250 2450 2250
Wire Wire Line
	3000 2050 3000 2000
$Comp
L MxSwitch:MX-NoLED MX3
U 1 1 5FA3E483
P 3950 2200
F 0 "MX3" H 3822 2145 60  0000 R CNN
F 1 "MX0:2" H 3822 2219 20  0000 R CNN
F 2 "CherryOnly:MXOnly-1U-NoLED" H 3325 2175 60  0001 C CNN
F 3 "" H 3325 2175 60  0001 C CNN
	1    3950 2200
	-1   0    0    1   
$EndComp
Wire Wire Line
	3700 2250 3800 2250
$Comp
L Device:D_Small D4
U 1 1 5FA3E48A
P 3600 2250
F 0 "D4" H 3600 2363 50  0000 C CNN
F 1 "D0:2" H 3600 2150 50  0000 C CNN
F 2 "Diode_SMD:D_SOD-123" V 3600 2250 50  0001 C CNN
F 3 "~" V 3600 2250 50  0001 C CNN
	1    3600 2250
	1    0    0    -1  
$EndComp
Wire Wire Line
	3500 2250 3450 2250
Wire Wire Line
	4000 2050 4000 2000
$Comp
L MxSwitch:MX-NoLED MX4
U 1 1 5FA3F035
P 4950 2200
F 0 "MX4" H 4822 2145 60  0000 R CNN
F 1 "MX0:3" H 4822 2219 20  0000 R CNN
F 2 "CherryOnly:MXOnly-1U-NoLED" H 4325 2175 60  0001 C CNN
F 3 "" H 4325 2175 60  0001 C CNN
	1    4950 2200
	-1   0    0    1   
$EndComp
Wire Wire Line
	4700 2250 4800 2250
$Comp
L Device:D_Small D5
U 1 1 5FA3F03C
P 4600 2250
F 0 "D5" H 4600 2363 50  0000 C CNN
F 1 "D0:3" H 4600 2150 50  0000 C CNN
F 2 "Diode_SMD:D_SOD-123" V 4600 2250 50  0001 C CNN
F 3 "~" V 4600 2250 50  0001 C CNN
	1    4600 2250
	1    0    0    -1  
$EndComp
Wire Wire Line
	4500 2250 4450 2250
Wire Wire Line
	5000 2050 5000 2000
Wire Wire Line
	5700 2250 5800 2250
$Comp
L Device:D_Small D6
U 1 1 5FA4654D
P 5600 2250
F 0 "D6" H 5600 2363 50  0000 C CNN
F 1 "D0:4" H 5600 2150 50  0000 C CNN
F 2 "Diode_SMD:D_SOD-123" V 5600 2250 50  0001 C CNN
F 3 "~" V 5600 2250 50  0001 C CNN
	1    5600 2250
	1    0    0    -1  
$EndComp
Wire Wire Line
	5500 2250 5450 2250
Wire Wire Line
	6000 2050 6000 2000
Wire Wire Line
	6700 2250 6800 2250
$Comp
L Device:D_Small D7
U 1 1 5FA4655C
P 6600 2250
F 0 "D7" H 6600 2363 50  0000 C CNN
F 1 "D0:5" H 6600 2150 50  0000 C CNN
F 2 "Diode_SMD:D_SOD-123" V 6600 2250 50  0001 C CNN
F 3 "~" V 6600 2250 50  0001 C CNN
	1    6600 2250
	1    0    0    -1  
$EndComp
Wire Wire Line
	6500 2250 6450 2250
Wire Wire Line
	7000 2050 7000 2000
Wire Wire Line
	7700 2250 7800 2250
$Comp
L Device:D_Small D8
U 1 1 5FA4656B
P 7600 2250
F 0 "D8" H 7600 2363 50  0000 C CNN
F 1 "D0:6" H 7600 2150 50  0000 C CNN
F 2 "Diode_SMD:D_SOD-123" V 7600 2250 50  0001 C CNN
F 3 "~" V 7600 2250 50  0001 C CNN
	1    7600 2250
	1    0    0    -1  
$EndComp
Wire Wire Line
	7500 2250 7450 2250
Wire Wire Line
	8000 2050 8000 2000
Wire Wire Line
	8700 2250 8800 2250
$Comp
L Device:D_Small D9
U 1 1 5FA4657A
P 8600 2250
F 0 "D9" H 8600 2363 50  0000 C CNN
F 1 "D0:7" H 8600 2150 50  0000 C CNN
F 2 "Diode_SMD:D_SOD-123" V 8600 2250 50  0001 C CNN
F 3 "~" V 8600 2250 50  0001 C CNN
	1    8600 2250
	1    0    0    -1  
$EndComp
Wire Wire Line
	8500 2250 8450 2250
Wire Wire Line
	9000 2050 9000 2000
$Comp
L MxSwitch:MX-NoLED MX6
U 1 1 5FA494A6
P 9950 2200
F 0 "MX6" H 9822 2145 60  0000 R CNN
F 1 "MX0:8" H 9822 2219 20  0000 R CNN
F 2 "CherryOnly:MXOnly-1U-NoLED" H 9325 2175 60  0001 C CNN
F 3 "" H 9325 2175 60  0001 C CNN
	1    9950 2200
	-1   0    0    1   
$EndComp
Wire Wire Line
	9700 2250 9800 2250
$Comp
L Device:D_Small D10
U 1 1 5FA494AD
P 9600 2250
F 0 "D10" H 9600 2363 50  0000 C CNN
F 1 "D0:8" H 9600 2150 50  0000 C CNN
F 2 "Diode_SMD:D_SOD-123" V 9600 2250 50  0001 C CNN
F 3 "~" V 9600 2250 50  0001 C CNN
	1    9600 2250
	1    0    0    -1  
$EndComp
Wire Wire Line
	9500 2250 9450 2250
Wire Wire Line
	10000 2050 10000 2000
$Comp
L MxSwitch:MX-NoLED MX7
U 1 1 5FA494B5
P 10950 2200
F 0 "MX7" H 10822 2145 60  0000 R CNN
F 1 "MX0:9" H 10822 2219 20  0000 R CNN
F 2 "CherryOnly:MXOnly-1U-NoLED" H 10325 2175 60  0001 C CNN
F 3 "" H 10325 2175 60  0001 C CNN
	1    10950 2200
	-1   0    0    1   
$EndComp
Wire Wire Line
	10700 2250 10800 2250
$Comp
L Device:D_Small D11
U 1 1 5FA494BC
P 10600 2250
F 0 "D11" H 10600 2363 50  0000 C CNN
F 1 "D0:9" H 10600 2150 50  0000 C CNN
F 2 "Diode_SMD:D_SOD-123" V 10600 2250 50  0001 C CNN
F 3 "~" V 10600 2250 50  0001 C CNN
	1    10600 2250
	1    0    0    -1  
$EndComp
Wire Wire Line
	10500 2250 10450 2250
Wire Wire Line
	11000 2050 11000 2000
$Comp
L MxSwitch:MX-NoLED MX8
U 1 1 5FA494C4
P 11950 2200
F 0 "MX8" H 11822 2145 60  0000 R CNN
F 1 "MX0:10" H 11822 2219 20  0000 R CNN
F 2 "CherryOnly:MXOnly-1U-NoLED" H 11325 2175 60  0001 C CNN
F 3 "" H 11325 2175 60  0001 C CNN
	1    11950 2200
	-1   0    0    1   
$EndComp
Wire Wire Line
	11700 2250 11800 2250
$Comp
L Device:D_Small D12
U 1 1 5FA494CB
P 11600 2250
F 0 "D12" H 11600 2363 50  0000 C CNN
F 1 "D0:10" H 11600 2150 50  0000 C CNN
F 2 "Diode_SMD:D_SOD-123" V 11600 2250 50  0001 C CNN
F 3 "~" V 11600 2250 50  0001 C CNN
	1    11600 2250
	1    0    0    -1  
$EndComp
Wire Wire Line
	11500 2250 11450 2250
Wire Wire Line
	12000 2050 12000 2000
$Comp
L MxSwitch:MX-NoLED MX9
U 1 1 5FA494D3
P 12950 2200
F 0 "MX9" H 12822 2145 60  0000 R CNN
F 1 "MX0:11" H 12822 2219 20  0000 R CNN
F 2 "CherryOnly:MXOnly-1U-NoLED" H 12325 2175 60  0001 C CNN
F 3 "" H 12325 2175 60  0001 C CNN
	1    12950 2200
	-1   0    0    1   
$EndComp
Wire Wire Line
	12700 2250 12800 2250
$Comp
L Device:D_Small D13
U 1 1 5FA494DA
P 12600 2250
F 0 "D13" H 12600 2363 50  0000 C CNN
F 1 "D0:11" H 12600 2150 50  0000 C CNN
F 2 "Diode_SMD:D_SOD-123" V 12600 2250 50  0001 C CNN
F 3 "~" V 12600 2250 50  0001 C CNN
	1    12600 2250
	1    0    0    -1  
$EndComp
Wire Wire Line
	12500 2250 12450 2250
Wire Wire Line
	13000 2050 13000 2000
$Comp
L MxSwitch:MX-NoLED MX10
U 1 1 5FA4B6E3
P 13950 2200
F 0 "MX10" H 13822 2145 60  0000 R CNN
F 1 "MX0:12" H 13822 2219 20  0000 R CNN
F 2 "CherryOnly:MXOnly-1U-NoLED" H 13325 2175 60  0001 C CNN
F 3 "" H 13325 2175 60  0001 C CNN
	1    13950 2200
	-1   0    0    1   
$EndComp
Wire Wire Line
	13700 2250 13800 2250
$Comp
L Device:D_Small D14
U 1 1 5FA4B6EA
P 13600 2250
F 0 "D14" H 13600 2363 50  0000 C CNN
F 1 "D0:12" H 13600 2150 50  0000 C CNN
F 2 "Diode_SMD:D_SOD-123" V 13600 2250 50  0001 C CNN
F 3 "~" V 13600 2250 50  0001 C CNN
	1    13600 2250
	1    0    0    -1  
$EndComp
Wire Wire Line
	13500 2250 13450 2250
Wire Wire Line
	14000 2050 14000 2000
$Comp
L MxSwitch:MX-NoLED MX12
U 1 1 5FA7132D
P 1950 2700
F 0 "MX12" H 1822 2645 60  0000 R CNN
F 1 "MX1:0" H 1822 2719 20  0000 R CNN
F 2 "CherryOnly:MXOnly-1.5U-NoLED" H 1325 2675 60  0001 C CNN
F 3 "" H 1325 2675 60  0001 C CNN
	1    1950 2700
	-1   0    0    1   
$EndComp
Wire Wire Line
	1700 2750 1800 2750
$Comp
L Device:D_Small D16
U 1 1 5FA71334
P 1600 2750
F 0 "D16" H 1600 2863 50  0000 C CNN
F 1 "D1:0" H 1600 2650 50  0000 C CNN
F 2 "Diode_SMD:D_SOD-123" V 1600 2750 50  0001 C CNN
F 3 "~" V 1600 2750 50  0001 C CNN
	1    1600 2750
	1    0    0    -1  
$EndComp
Wire Wire Line
	1500 2750 1450 2750
Wire Wire Line
	2000 2550 2000 2500
$Comp
L MxSwitch:MX-NoLED MX13
U 1 1 5FA7133C
P 2950 2700
F 0 "MX13" H 2822 2645 60  0000 R CNN
F 1 "MX1:1" H 2822 2719 20  0000 R CNN
F 2 "CherryOnly:MXOnly-1U-NoLED" H 2325 2675 60  0001 C CNN
F 3 "" H 2325 2675 60  0001 C CNN
	1    2950 2700
	-1   0    0    1   
$EndComp
Wire Wire Line
	2700 2750 2800 2750
$Comp
L Device:D_Small D17
U 1 1 5FA71343
P 2600 2750
F 0 "D17" H 2600 2863 50  0000 C CNN
F 1 "D1:1" H 2600 2650 50  0000 C CNN
F 2 "Diode_SMD:D_SOD-123" V 2600 2750 50  0001 C CNN
F 3 "~" V 2600 2750 50  0001 C CNN
	1    2600 2750
	1    0    0    -1  
$EndComp
Wire Wire Line
	2500 2750 2450 2750
Wire Wire Line
	3000 2550 3000 2500
$Comp
L MxSwitch:MX-NoLED MX14
U 1 1 5FA7134B
P 3950 2700
F 0 "MX14" H 3822 2645 60  0000 R CNN
F 1 "MX1:2" H 3822 2719 20  0000 R CNN
F 2 "CherryOnly:MXOnly-1U-NoLED" H 3325 2675 60  0001 C CNN
F 3 "" H 3325 2675 60  0001 C CNN
	1    3950 2700
	-1   0    0    1   
$EndComp
Wire Wire Line
	3700 2750 3800 2750
$Comp
L Device:D_Small D18
U 1 1 5FA71352
P 3600 2750
F 0 "D18" H 3600 2863 50  0000 C CNN
F 1 "D1:2" H 3600 2650 50  0000 C CNN
F 2 "Diode_SMD:D_SOD-123" V 3600 2750 50  0001 C CNN
F 3 "~" V 3600 2750 50  0001 C CNN
	1    3600 2750
	1    0    0    -1  
$EndComp
Wire Wire Line
	3500 2750 3450 2750
Wire Wire Line
	4000 2550 4000 2500
$Comp
L MxSwitch:MX-NoLED MX15
U 1 1 5FA7135A
P 4950 2700
F 0 "MX15" H 4822 2645 60  0000 R CNN
F 1 "MX1:3" H 4822 2719 20  0000 R CNN
F 2 "CherryOnly:MXOnly-1U-NoLED" H 4325 2675 60  0001 C CNN
F 3 "" H 4325 2675 60  0001 C CNN
	1    4950 2700
	-1   0    0    1   
$EndComp
Wire Wire Line
	4700 2750 4800 2750
$Comp
L Device:D_Small D19
U 1 1 5FA71361
P 4600 2750
F 0 "D19" H 4600 2863 50  0000 C CNN
F 1 "D1:3" H 4600 2650 50  0000 C CNN
F 2 "Diode_SMD:D_SOD-123" V 4600 2750 50  0001 C CNN
F 3 "~" V 4600 2750 50  0001 C CNN
	1    4600 2750
	1    0    0    -1  
$EndComp
Wire Wire Line
	4500 2750 4450 2750
Wire Wire Line
	5000 2550 5000 2500
$Comp
L MxSwitch:MX-NoLED MX16
U 1 1 5FA71369
P 5950 2700
F 0 "MX16" H 5822 2645 60  0000 R CNN
F 1 "MX1:4" H 5822 2719 20  0000 R CNN
F 2 "CherryOnly:MXOnly-1U-NoLED" H 5325 2675 60  0001 C CNN
F 3 "" H 5325 2675 60  0001 C CNN
	1    5950 2700
	-1   0    0    1   
$EndComp
Wire Wire Line
	5700 2750 5800 2750
$Comp
L Device:D_Small D20
U 1 1 5FA71370
P 5600 2750
F 0 "D20" H 5600 2863 50  0000 C CNN
F 1 "D1:4" H 5600 2650 50  0000 C CNN
F 2 "Diode_SMD:D_SOD-123" V 5600 2750 50  0001 C CNN
F 3 "~" V 5600 2750 50  0001 C CNN
	1    5600 2750
	1    0    0    -1  
$EndComp
Wire Wire Line
	5500 2750 5450 2750
Wire Wire Line
	6000 2550 6000 2500
$Comp
L MxSwitch:MX-NoLED MX17
U 1 1 5FA71378
P 6950 2700
F 0 "MX17" H 6822 2645 60  0000 R CNN
F 1 "MX1:5" H 6822 2719 20  0000 R CNN
F 2 "CherryOnly:MXOnly-1U-NoLED" H 6325 2675 60  0001 C CNN
F 3 "" H 6325 2675 60  0001 C CNN
	1    6950 2700
	-1   0    0    1   
$EndComp
Wire Wire Line
	6700 2750 6800 2750
$Comp
L Device:D_Small D21
U 1 1 5FA7137F
P 6600 2750
F 0 "D21" H 6600 2863 50  0000 C CNN
F 1 "D1:5" H 6600 2650 50  0000 C CNN
F 2 "Diode_SMD:D_SOD-123" V 6600 2750 50  0001 C CNN
F 3 "~" V 6600 2750 50  0001 C CNN
	1    6600 2750
	1    0    0    -1  
$EndComp
Wire Wire Line
	6500 2750 6450 2750
Wire Wire Line
	7000 2550 7000 2500
Wire Wire Line
	7700 2750 7800 2750
$Comp
L Device:D_Small D22
U 1 1 5FA7138E
P 7600 2750
F 0 "D22" H 7600 2863 50  0000 C CNN
F 1 "D1:6" H 7600 2650 50  0000 C CNN
F 2 "Diode_SMD:D_SOD-123" V 7600 2750 50  0001 C CNN
F 3 "~" V 7600 2750 50  0001 C CNN
	1    7600 2750
	1    0    0    -1  
$EndComp
Wire Wire Line
	7500 2750 7450 2750
Wire Wire Line
	8000 2550 8000 2500
$Comp
L MxSwitch:MX-NoLED MX19
U 1 1 5FA71396
P 8950 2700
F 0 "MX19" H 8822 2645 60  0000 R CNN
F 1 "MX1:7" H 8822 2719 20  0000 R CNN
F 2 "CherryOnly:MXOnly-1U-NoLED" H 8325 2675 60  0001 C CNN
F 3 "" H 8325 2675 60  0001 C CNN
	1    8950 2700
	-1   0    0    1   
$EndComp
Wire Wire Line
	8700 2750 8800 2750
$Comp
L Device:D_Small D23
U 1 1 5FA7139D
P 8600 2750
F 0 "D23" H 8600 2863 50  0000 C CNN
F 1 "D1:7" H 8600 2650 50  0000 C CNN
F 2 "Diode_SMD:D_SOD-123" V 8600 2750 50  0001 C CNN
F 3 "~" V 8600 2750 50  0001 C CNN
	1    8600 2750
	1    0    0    -1  
$EndComp
Wire Wire Line
	8500 2750 8450 2750
Wire Wire Line
	9000 2550 9000 2500
$Comp
L MxSwitch:MX-NoLED MX20
U 1 1 5FA713A5
P 9950 2700
F 0 "MX20" H 9822 2645 60  0000 R CNN
F 1 "MX1:8" H 9822 2719 20  0000 R CNN
F 2 "CherryOnly:MXOnly-1U-NoLED" H 9325 2675 60  0001 C CNN
F 3 "" H 9325 2675 60  0001 C CNN
	1    9950 2700
	-1   0    0    1   
$EndComp
Wire Wire Line
	9700 2750 9800 2750
$Comp
L Device:D_Small D24
U 1 1 5FA713AC
P 9600 2750
F 0 "D24" H 9600 2863 50  0000 C CNN
F 1 "D1:8" H 9600 2650 50  0000 C CNN
F 2 "Diode_SMD:D_SOD-123" V 9600 2750 50  0001 C CNN
F 3 "~" V 9600 2750 50  0001 C CNN
	1    9600 2750
	1    0    0    -1  
$EndComp
Wire Wire Line
	9500 2750 9450 2750
Wire Wire Line
	10000 2550 10000 2500
$Comp
L MxSwitch:MX-NoLED MX21
U 1 1 5FA713B4
P 10950 2700
F 0 "MX21" H 10822 2645 60  0000 R CNN
F 1 "MX1:9" H 10822 2719 20  0000 R CNN
F 2 "CherryOnly:MXOnly-1U-NoLED" H 10325 2675 60  0001 C CNN
F 3 "" H 10325 2675 60  0001 C CNN
	1    10950 2700
	-1   0    0    1   
$EndComp
Wire Wire Line
	10700 2750 10800 2750
$Comp
L Device:D_Small D25
U 1 1 5FA713BB
P 10600 2750
F 0 "D25" H 10600 2863 50  0000 C CNN
F 1 "D1:9" H 10600 2650 50  0000 C CNN
F 2 "Diode_SMD:D_SOD-123" V 10600 2750 50  0001 C CNN
F 3 "~" V 10600 2750 50  0001 C CNN
	1    10600 2750
	1    0    0    -1  
$EndComp
Wire Wire Line
	10500 2750 10450 2750
Wire Wire Line
	11000 2550 11000 2500
$Comp
L MxSwitch:MX-NoLED MX22
U 1 1 5FA713C3
P 11950 2700
F 0 "MX22" H 11822 2645 60  0000 R CNN
F 1 "MX1:10" H 11822 2719 20  0000 R CNN
F 2 "CherryOnly:MXOnly-1U-NoLED" H 11325 2675 60  0001 C CNN
F 3 "" H 11325 2675 60  0001 C CNN
	1    11950 2700
	-1   0    0    1   
$EndComp
Wire Wire Line
	11700 2750 11800 2750
$Comp
L Device:D_Small D26
U 1 1 5FA713CA
P 11600 2750
F 0 "D26" H 11600 2863 50  0000 C CNN
F 1 "D1:10" H 11600 2650 50  0000 C CNN
F 2 "Diode_SMD:D_SOD-123" V 11600 2750 50  0001 C CNN
F 3 "~" V 11600 2750 50  0001 C CNN
	1    11600 2750
	1    0    0    -1  
$EndComp
Wire Wire Line
	11500 2750 11450 2750
Wire Wire Line
	12000 2550 12000 2500
$Comp
L MxSwitch:MX-NoLED MX23
U 1 1 5FA713D2
P 12950 2700
F 0 "MX23" H 12822 2645 60  0000 R CNN
F 1 "MX1:11" H 12822 2719 20  0000 R CNN
F 2 "CherryOnly:MXOnly-1U-NoLED" H 12325 2675 60  0001 C CNN
F 3 "" H 12325 2675 60  0001 C CNN
	1    12950 2700
	-1   0    0    1   
$EndComp
Wire Wire Line
	12700 2750 12800 2750
$Comp
L Device:D_Small D27
U 1 1 5FA713D9
P 12600 2750
F 0 "D27" H 12600 2863 50  0000 C CNN
F 1 "D1:11" H 12600 2650 50  0000 C CNN
F 2 "Diode_SMD:D_SOD-123" V 12600 2750 50  0001 C CNN
F 3 "~" V 12600 2750 50  0001 C CNN
	1    12600 2750
	1    0    0    -1  
$EndComp
Wire Wire Line
	12500 2750 12450 2750
Wire Wire Line
	13000 2550 13000 2500
$Comp
L MxSwitch:MX-NoLED MX24
U 1 1 5FA713E1
P 13950 2700
F 0 "MX24" H 13822 2645 60  0000 R CNN
F 1 "MX1:12" H 13822 2719 20  0000 R CNN
F 2 "CherryOnly:MXOnly-1U-NoLED" H 13325 2675 60  0001 C CNN
F 3 "" H 13325 2675 60  0001 C CNN
	1    13950 2700
	-1   0    0    1   
$EndComp
Wire Wire Line
	13700 2750 13800 2750
$Comp
L Device:D_Small D28
U 1 1 5FA713E8
P 13600 2750
F 0 "D28" H 13600 2863 50  0000 C CNN
F 1 "D1:12" H 13600 2650 50  0000 C CNN
F 2 "Diode_SMD:D_SOD-123" V 13600 2750 50  0001 C CNN
F 3 "~" V 13600 2750 50  0001 C CNN
	1    13600 2750
	1    0    0    -1  
$EndComp
Wire Wire Line
	13500 2750 13450 2750
Wire Wire Line
	14000 2550 14000 2500
$Comp
L MxSwitch:MX-NoLED MX26
U 1 1 5FA796D8
P 1950 3200
F 0 "MX26" H 1822 3145 60  0000 R CNN
F 1 "MX2:0" H 1822 3219 20  0000 R CNN
F 2 "CherryOnly:MXOnly-1.5U-NoLED" H 1325 3175 60  0001 C CNN
F 3 "" H 1325 3175 60  0001 C CNN
	1    1950 3200
	-1   0    0    1   
$EndComp
Wire Wire Line
	1700 3250 1800 3250
$Comp
L Device:D_Small D30
U 1 1 5FA796DF
P 1600 3250
F 0 "D30" H 1600 3363 50  0000 C CNN
F 1 "D2:0" H 1600 3150 50  0000 C CNN
F 2 "Diode_SMD:D_SOD-123" V 1600 3250 50  0001 C CNN
F 3 "~" V 1600 3250 50  0001 C CNN
	1    1600 3250
	1    0    0    -1  
$EndComp
Wire Wire Line
	1500 3250 1450 3250
Wire Wire Line
	2000 3050 2000 3000
$Comp
L MxSwitch:MX-NoLED MX27
U 1 1 5FA796E7
P 2950 3200
F 0 "MX27" H 2822 3145 60  0000 R CNN
F 1 "MX2:1" H 2822 3219 20  0000 R CNN
F 2 "CherryOnly:MXOnly-1U-NoLED" H 2325 3175 60  0001 C CNN
F 3 "" H 2325 3175 60  0001 C CNN
	1    2950 3200
	-1   0    0    1   
$EndComp
Wire Wire Line
	2700 3250 2800 3250
$Comp
L Device:D_Small D31
U 1 1 5FA796EE
P 2600 3250
F 0 "D31" H 2600 3363 50  0000 C CNN
F 1 "D2:1" H 2600 3150 50  0000 C CNN
F 2 "Diode_SMD:D_SOD-123" V 2600 3250 50  0001 C CNN
F 3 "~" V 2600 3250 50  0001 C CNN
	1    2600 3250
	1    0    0    -1  
$EndComp
Wire Wire Line
	2500 3250 2450 3250
Wire Wire Line
	3000 3050 3000 3000
$Comp
L MxSwitch:MX-NoLED MX28
U 1 1 5FA796F6
P 3950 3200
F 0 "MX28" H 3822 3145 60  0000 R CNN
F 1 "MX2:2" H 3822 3219 20  0000 R CNN
F 2 "CherryOnly:MXOnly-1U-NoLED" H 3325 3175 60  0001 C CNN
F 3 "" H 3325 3175 60  0001 C CNN
	1    3950 3200
	-1   0    0    1   
$EndComp
Wire Wire Line
	3700 3250 3800 3250
$Comp
L Device:D_Small D32
U 1 1 5FA796FD
P 3600 3250
F 0 "D32" H 3600 3363 50  0000 C CNN
F 1 "D2:2" H 3600 3150 50  0000 C CNN
F 2 "Diode_SMD:D_SOD-123" V 3600 3250 50  0001 C CNN
F 3 "~" V 3600 3250 50  0001 C CNN
	1    3600 3250
	1    0    0    -1  
$EndComp
Wire Wire Line
	3500 3250 3450 3250
Wire Wire Line
	4000 3050 4000 3000
$Comp
L MxSwitch:MX-NoLED MX29
U 1 1 5FA79705
P 4950 3200
F 0 "MX29" H 4822 3145 60  0000 R CNN
F 1 "MX2:3" H 4822 3219 20  0000 R CNN
F 2 "CherryOnly:MXOnly-1U-NoLED" H 4325 3175 60  0001 C CNN
F 3 "" H 4325 3175 60  0001 C CNN
	1    4950 3200
	-1   0    0    1   
$EndComp
Wire Wire Line
	4700 3250 4800 3250
$Comp
L Device:D_Small D33
U 1 1 5FA7970C
P 4600 3250
F 0 "D33" H 4600 3363 50  0000 C CNN
F 1 "D2:3" H 4600 3150 50  0000 C CNN
F 2 "Diode_SMD:D_SOD-123" V 4600 3250 50  0001 C CNN
F 3 "~" V 4600 3250 50  0001 C CNN
	1    4600 3250
	1    0    0    -1  
$EndComp
Wire Wire Line
	4500 3250 4450 3250
Wire Wire Line
	5000 3050 5000 3000
$Comp
L MxSwitch:MX-NoLED MX30
U 1 1 5FA79714
P 5950 3200
F 0 "MX30" H 5822 3145 60  0000 R CNN
F 1 "MX2:4" H 5822 3219 20  0000 R CNN
F 2 "CherryOnly:MXOnly-1U-NoLED" H 5325 3175 60  0001 C CNN
F 3 "" H 5325 3175 60  0001 C CNN
	1    5950 3200
	-1   0    0    1   
$EndComp
Wire Wire Line
	5700 3250 5800 3250
$Comp
L Device:D_Small D34
U 1 1 5FA7971B
P 5600 3250
F 0 "D34" H 5600 3363 50  0000 C CNN
F 1 "D2:4" H 5600 3150 50  0000 C CNN
F 2 "Diode_SMD:D_SOD-123" V 5600 3250 50  0001 C CNN
F 3 "~" V 5600 3250 50  0001 C CNN
	1    5600 3250
	1    0    0    -1  
$EndComp
Wire Wire Line
	5500 3250 5450 3250
Wire Wire Line
	6000 3050 6000 3000
$Comp
L MxSwitch:MX-NoLED MX31
U 1 1 5FA79723
P 6950 3200
F 0 "MX31" H 6822 3145 60  0000 R CNN
F 1 "MX2:5" H 6822 3219 20  0000 R CNN
F 2 "CherryOnly:MXOnly-1U-NoLED" H 6325 3175 60  0001 C CNN
F 3 "" H 6325 3175 60  0001 C CNN
	1    6950 3200
	-1   0    0    1   
$EndComp
Wire Wire Line
	6700 3250 6800 3250
$Comp
L Device:D_Small D35
U 1 1 5FA7972A
P 6600 3250
F 0 "D35" H 6600 3363 50  0000 C CNN
F 1 "D2:5" H 6600 3150 50  0000 C CNN
F 2 "Diode_SMD:D_SOD-123" V 6600 3250 50  0001 C CNN
F 3 "~" V 6600 3250 50  0001 C CNN
	1    6600 3250
	1    0    0    -1  
$EndComp
Wire Wire Line
	6500 3250 6450 3250
Wire Wire Line
	7000 3050 7000 3000
Wire Wire Line
	7700 3250 7800 3250
$Comp
L Device:D_Small D36
U 1 1 5FA79739
P 7600 3250
F 0 "D36" H 7600 3363 50  0000 C CNN
F 1 "D2:6" H 7600 3150 50  0000 C CNN
F 2 "Diode_SMD:D_SOD-123" V 7600 3250 50  0001 C CNN
F 3 "~" V 7600 3250 50  0001 C CNN
	1    7600 3250
	1    0    0    -1  
$EndComp
Wire Wire Line
	7500 3250 7450 3250
Wire Wire Line
	8000 3050 8000 3000
$Comp
L MxSwitch:MX-NoLED MX33
U 1 1 5FA79741
P 8950 3200
F 0 "MX33" H 8822 3145 60  0000 R CNN
F 1 "MX2:7" H 8822 3219 20  0000 R CNN
F 2 "CherryOnly:MXOnly-1U-NoLED" H 8325 3175 60  0001 C CNN
F 3 "" H 8325 3175 60  0001 C CNN
	1    8950 3200
	-1   0    0    1   
$EndComp
Wire Wire Line
	8700 3250 8800 3250
$Comp
L Device:D_Small D37
U 1 1 5FA79748
P 8600 3250
F 0 "D37" H 8600 3363 50  0000 C CNN
F 1 "D2:7" H 8600 3150 50  0000 C CNN
F 2 "Diode_SMD:D_SOD-123" V 8600 3250 50  0001 C CNN
F 3 "~" V 8600 3250 50  0001 C CNN
	1    8600 3250
	1    0    0    -1  
$EndComp
Wire Wire Line
	8500 3250 8450 3250
Wire Wire Line
	9000 3050 9000 3000
$Comp
L MxSwitch:MX-NoLED MX34
U 1 1 5FA79750
P 9950 3200
F 0 "MX34" H 9822 3145 60  0000 R CNN
F 1 "MX2:8" H 9822 3219 20  0000 R CNN
F 2 "CherryOnly:MXOnly-1U-NoLED" H 9325 3175 60  0001 C CNN
F 3 "" H 9325 3175 60  0001 C CNN
	1    9950 3200
	-1   0    0    1   
$EndComp
Wire Wire Line
	9700 3250 9800 3250
$Comp
L Device:D_Small D38
U 1 1 5FA79757
P 9600 3250
F 0 "D38" H 9600 3363 50  0000 C CNN
F 1 "D2:8" H 9600 3150 50  0000 C CNN
F 2 "Diode_SMD:D_SOD-123" V 9600 3250 50  0001 C CNN
F 3 "~" V 9600 3250 50  0001 C CNN
	1    9600 3250
	1    0    0    -1  
$EndComp
Wire Wire Line
	9500 3250 9450 3250
Wire Wire Line
	10000 3050 10000 3000
$Comp
L MxSwitch:MX-NoLED MX35
U 1 1 5FA7975F
P 10950 3200
F 0 "MX35" H 10822 3145 60  0000 R CNN
F 1 "MX2:9" H 10822 3219 20  0000 R CNN
F 2 "CherryOnly:MXOnly-1U-NoLED" H 10325 3175 60  0001 C CNN
F 3 "" H 10325 3175 60  0001 C CNN
	1    10950 3200
	-1   0    0    1   
$EndComp
Wire Wire Line
	10700 3250 10800 3250
$Comp
L Device:D_Small D39
U 1 1 5FA79766
P 10600 3250
F 0 "D39" H 10600 3363 50  0000 C CNN
F 1 "D2:9" H 10600 3150 50  0000 C CNN
F 2 "Diode_SMD:D_SOD-123" V 10600 3250 50  0001 C CNN
F 3 "~" V 10600 3250 50  0001 C CNN
	1    10600 3250
	1    0    0    -1  
$EndComp
Wire Wire Line
	10500 3250 10450 3250
Wire Wire Line
	11000 3050 11000 3000
$Comp
L MxSwitch:MX-NoLED MX36
U 1 1 5FA7976E
P 11950 3200
F 0 "MX36" H 11822 3145 60  0000 R CNN
F 1 "MX2:10" H 11822 3219 20  0000 R CNN
F 2 "CherryOnly:MXOnly-1U-NoLED" H 11325 3175 60  0001 C CNN
F 3 "" H 11325 3175 60  0001 C CNN
	1    11950 3200
	-1   0    0    1   
$EndComp
Wire Wire Line
	11700 3250 11800 3250
$Comp
L Device:D_Small D40
U 1 1 5FA79775
P 11600 3250
F 0 "D40" H 11600 3363 50  0000 C CNN
F 1 "D2:10" H 11600 3150 50  0000 C CNN
F 2 "Diode_SMD:D_SOD-123" V 11600 3250 50  0001 C CNN
F 3 "~" V 11600 3250 50  0001 C CNN
	1    11600 3250
	1    0    0    -1  
$EndComp
Wire Wire Line
	11500 3250 11450 3250
Wire Wire Line
	12000 3050 12000 3000
$Comp
L MxSwitch:MX-NoLED MX37
U 1 1 5FA7977D
P 12950 3200
F 0 "MX37" H 12822 3145 60  0000 R CNN
F 1 "MX2:11" H 12822 3219 20  0000 R CNN
F 2 "CherryOnly:MXOnly-1U-NoLED" H 12325 3175 60  0001 C CNN
F 3 "" H 12325 3175 60  0001 C CNN
	1    12950 3200
	-1   0    0    1   
$EndComp
Wire Wire Line
	12700 3250 12800 3250
$Comp
L Device:D_Small D41
U 1 1 5FA79784
P 12600 3250
F 0 "D41" H 12600 3363 50  0000 C CNN
F 1 "D2:11" H 12600 3150 50  0000 C CNN
F 2 "Diode_SMD:D_SOD-123" V 12600 3250 50  0001 C CNN
F 3 "~" V 12600 3250 50  0001 C CNN
	1    12600 3250
	1    0    0    -1  
$EndComp
Wire Wire Line
	12500 3250 12450 3250
Wire Wire Line
	13000 3050 13000 3000
$Comp
L MxSwitch:MX-NoLED MX38
U 1 1 5FA7978C
P 13950 3200
F 0 "MX38" H 13822 3145 60  0000 R CNN
F 1 "MX2:12" H 13822 3219 20  0000 R CNN
F 2 "CherryOnly:MXOnly-1U-NoLED" H 13325 3175 60  0001 C CNN
F 3 "" H 13325 3175 60  0001 C CNN
	1    13950 3200
	-1   0    0    1   
$EndComp
Wire Wire Line
	13700 3250 13800 3250
$Comp
L Device:D_Small D42
U 1 1 5FA79793
P 13600 3250
F 0 "D42" H 13600 3363 50  0000 C CNN
F 1 "D2:12" H 13600 3150 50  0000 C CNN
F 2 "Diode_SMD:D_SOD-123" V 13600 3250 50  0001 C CNN
F 3 "~" V 13600 3250 50  0001 C CNN
	1    13600 3250
	1    0    0    -1  
$EndComp
Wire Wire Line
	13500 3250 13450 3250
Wire Wire Line
	14000 3050 14000 3000
$Comp
L MxSwitch:MX-NoLED MX40
U 1 1 5FA920CC
P 1950 3700
F 0 "MX40" H 1822 3645 60  0000 R CNN
F 1 "MX3:0" H 1822 3719 20  0000 R CNN
F 2 "CherryOnly:MXOnly-1.5U-NoLED" H 1325 3675 60  0001 C CNN
F 3 "" H 1325 3675 60  0001 C CNN
	1    1950 3700
	-1   0    0    1   
$EndComp
Wire Wire Line
	1700 3750 1800 3750
$Comp
L Device:D_Small D44
U 1 1 5FA920D3
P 1600 3750
F 0 "D44" H 1600 3863 50  0000 C CNN
F 1 "D3:0" H 1600 3650 50  0000 C CNN
F 2 "Diode_SMD:D_SOD-123" V 1600 3750 50  0001 C CNN
F 3 "~" V 1600 3750 50  0001 C CNN
	1    1600 3750
	1    0    0    -1  
$EndComp
Wire Wire Line
	1500 3750 1450 3750
Wire Wire Line
	2000 3550 2000 3500
$Comp
L MxSwitch:MX-NoLED MX41
U 1 1 5FA920DB
P 2950 3700
F 0 "MX41" H 2822 3645 60  0000 R CNN
F 1 "MX3:1" H 2822 3719 20  0000 R CNN
F 2 "CherryOnly:MXOnly-1U-NoLED" H 2325 3675 60  0001 C CNN
F 3 "" H 2325 3675 60  0001 C CNN
	1    2950 3700
	-1   0    0    1   
$EndComp
Wire Wire Line
	2700 3750 2800 3750
$Comp
L Device:D_Small D45
U 1 1 5FA920E2
P 2600 3750
F 0 "D45" H 2600 3863 50  0000 C CNN
F 1 "D3:1" H 2600 3650 50  0000 C CNN
F 2 "Diode_SMD:D_SOD-123" V 2600 3750 50  0001 C CNN
F 3 "~" V 2600 3750 50  0001 C CNN
	1    2600 3750
	1    0    0    -1  
$EndComp
Wire Wire Line
	2500 3750 2450 3750
Wire Wire Line
	3000 3550 3000 3500
$Comp
L MxSwitch:MX-NoLED MX42
U 1 1 5FA920EA
P 3950 3700
F 0 "MX42" H 3822 3645 60  0000 R CNN
F 1 "MX3:2" H 3822 3719 20  0000 R CNN
F 2 "CherryOnly:MXOnly-1U-NoLED" H 3325 3675 60  0001 C CNN
F 3 "" H 3325 3675 60  0001 C CNN
	1    3950 3700
	-1   0    0    1   
$EndComp
Wire Wire Line
	3700 3750 3800 3750
$Comp
L Device:D_Small D46
U 1 1 5FA920F1
P 3600 3750
F 0 "D46" H 3600 3863 50  0000 C CNN
F 1 "D3:2" H 3600 3650 50  0000 C CNN
F 2 "Diode_SMD:D_SOD-123" V 3600 3750 50  0001 C CNN
F 3 "~" V 3600 3750 50  0001 C CNN
	1    3600 3750
	1    0    0    -1  
$EndComp
Wire Wire Line
	3500 3750 3450 3750
Wire Wire Line
	4000 3550 4000 3500
$Comp
L MxSwitch:MX-NoLED MX43
U 1 1 5FA920F9
P 4950 3700
F 0 "MX43" H 4822 3645 60  0000 R CNN
F 1 "MX3:3" H 4822 3719 20  0000 R CNN
F 2 "CherryOnly:MXOnly-1U-NoLED" H 4325 3675 60  0001 C CNN
F 3 "" H 4325 3675 60  0001 C CNN
	1    4950 3700
	-1   0    0    1   
$EndComp
Wire Wire Line
	4700 3750 4800 3750
$Comp
L Device:D_Small D47
U 1 1 5FA92100
P 4600 3750
F 0 "D47" H 4600 3863 50  0000 C CNN
F 1 "D3:3" H 4600 3650 50  0000 C CNN
F 2 "Diode_SMD:D_SOD-123" V 4600 3750 50  0001 C CNN
F 3 "~" V 4600 3750 50  0001 C CNN
	1    4600 3750
	1    0    0    -1  
$EndComp
Wire Wire Line
	4500 3750 4450 3750
Wire Wire Line
	5000 3550 5000 3500
$Comp
L MxSwitch:MX-NoLED MX44
U 1 1 5FA92108
P 5950 3700
F 0 "MX44" H 5822 3645 60  0000 R CNN
F 1 "MX3:4" H 5822 3719 20  0000 R CNN
F 2 "CherryOnly:MXOnly-1U-NoLED" H 5325 3675 60  0001 C CNN
F 3 "" H 5325 3675 60  0001 C CNN
	1    5950 3700
	-1   0    0    1   
$EndComp
Wire Wire Line
	5700 3750 5800 3750
$Comp
L Device:D_Small D48
U 1 1 5FA9210F
P 5600 3750
F 0 "D48" H 5600 3863 50  0000 C CNN
F 1 "D3:4" H 5600 3650 50  0000 C CNN
F 2 "Diode_SMD:D_SOD-123" V 5600 3750 50  0001 C CNN
F 3 "~" V 5600 3750 50  0001 C CNN
	1    5600 3750
	1    0    0    -1  
$EndComp
Wire Wire Line
	5500 3750 5450 3750
Wire Wire Line
	6000 3550 6000 3500
$Comp
L MxSwitch:MX-NoLED MX45
U 1 1 5FA92117
P 6950 3700
F 0 "MX45" H 6822 3645 60  0000 R CNN
F 1 "MX3:5" H 6822 3719 20  0000 R CNN
F 2 "CherryOnly:MXOnly-1U-NoLED" H 6325 3675 60  0001 C CNN
F 3 "" H 6325 3675 60  0001 C CNN
	1    6950 3700
	-1   0    0    1   
$EndComp
Wire Wire Line
	6700 3750 6800 3750
$Comp
L Device:D_Small D49
U 1 1 5FA9211E
P 6600 3750
F 0 "D49" H 6600 3863 50  0000 C CNN
F 1 "D3:5" H 6600 3650 50  0000 C CNN
F 2 "Diode_SMD:D_SOD-123" V 6600 3750 50  0001 C CNN
F 3 "~" V 6600 3750 50  0001 C CNN
	1    6600 3750
	1    0    0    -1  
$EndComp
Wire Wire Line
	6500 3750 6450 3750
Wire Wire Line
	7000 3550 7000 3500
$Comp
L MxSwitch:MX-NoLED MX46
U 1 1 5FA92135
P 8950 3700
F 0 "MX46" H 8822 3645 60  0000 R CNN
F 1 "MX3:7" H 8822 3719 20  0000 R CNN
F 2 "CherryOnly:MXOnly-1U-NoLED" H 8325 3675 60  0001 C CNN
F 3 "" H 8325 3675 60  0001 C CNN
	1    8950 3700
	-1   0    0    1   
$EndComp
Wire Wire Line
	8700 3750 8800 3750
$Comp
L Device:D_Small D50
U 1 1 5FA9213C
P 8600 3750
F 0 "D50" H 8600 3863 50  0000 C CNN
F 1 "D3:7" H 8600 3650 50  0000 C CNN
F 2 "Diode_SMD:D_SOD-123" V 8600 3750 50  0001 C CNN
F 3 "~" V 8600 3750 50  0001 C CNN
	1    8600 3750
	1    0    0    -1  
$EndComp
Wire Wire Line
	8500 3750 8450 3750
Wire Wire Line
	9000 3550 9000 3500
$Comp
L MxSwitch:MX-NoLED MX47
U 1 1 5FA92144
P 9950 3700
F 0 "MX47" H 9822 3645 60  0000 R CNN
F 1 "MX3:8" H 9822 3719 20  0000 R CNN
F 2 "CherryOnly:MXOnly-1U-NoLED" H 9325 3675 60  0001 C CNN
F 3 "" H 9325 3675 60  0001 C CNN
	1    9950 3700
	-1   0    0    1   
$EndComp
Wire Wire Line
	9700 3750 9800 3750
$Comp
L Device:D_Small D51
U 1 1 5FA9214B
P 9600 3750
F 0 "D51" H 9600 3863 50  0000 C CNN
F 1 "D3:8" H 9600 3650 50  0000 C CNN
F 2 "Diode_SMD:D_SOD-123" V 9600 3750 50  0001 C CNN
F 3 "~" V 9600 3750 50  0001 C CNN
	1    9600 3750
	1    0    0    -1  
$EndComp
Wire Wire Line
	9500 3750 9450 3750
Wire Wire Line
	10000 3550 10000 3500
$Comp
L MxSwitch:MX-NoLED MX48
U 1 1 5FA92153
P 10950 3700
F 0 "MX48" H 10822 3645 60  0000 R CNN
F 1 "MX3:9" H 10822 3719 20  0000 R CNN
F 2 "CherryOnly:MXOnly-1U-NoLED" H 10325 3675 60  0001 C CNN
F 3 "" H 10325 3675 60  0001 C CNN
	1    10950 3700
	-1   0    0    1   
$EndComp
Wire Wire Line
	10700 3750 10800 3750
$Comp
L Device:D_Small D52
U 1 1 5FA9215A
P 10600 3750
F 0 "D52" H 10600 3863 50  0000 C CNN
F 1 "D3:9" H 10600 3650 50  0000 C CNN
F 2 "Diode_SMD:D_SOD-123" V 10600 3750 50  0001 C CNN
F 3 "~" V 10600 3750 50  0001 C CNN
	1    10600 3750
	1    0    0    -1  
$EndComp
Wire Wire Line
	10500 3750 10450 3750
Wire Wire Line
	11000 3550 11000 3500
$Comp
L MxSwitch:MX-NoLED MX49
U 1 1 5FA92162
P 11950 3700
F 0 "MX49" H 11822 3645 60  0000 R CNN
F 1 "MX3:10" H 11822 3719 20  0000 R CNN
F 2 "CherryOnly:MXOnly-1U-NoLED" H 11325 3675 60  0001 C CNN
F 3 "" H 11325 3675 60  0001 C CNN
	1    11950 3700
	-1   0    0    1   
$EndComp
Wire Wire Line
	11700 3750 11800 3750
$Comp
L Device:D_Small D53
U 1 1 5FA92169
P 11600 3750
F 0 "D53" H 11600 3863 50  0000 C CNN
F 1 "D3:10" H 11600 3650 50  0000 C CNN
F 2 "Diode_SMD:D_SOD-123" V 11600 3750 50  0001 C CNN
F 3 "~" V 11600 3750 50  0001 C CNN
	1    11600 3750
	1    0    0    -1  
$EndComp
Wire Wire Line
	11500 3750 11450 3750
Wire Wire Line
	12000 3550 12000 3500
$Comp
L MxSwitch:MX-NoLED MX50
U 1 1 5FA92171
P 12950 3700
F 0 "MX50" H 12822 3645 60  0000 R CNN
F 1 "MX3:11" H 12822 3719 20  0000 R CNN
F 2 "CherryOnly:MXOnly-1U-NoLED" H 12325 3675 60  0001 C CNN
F 3 "" H 12325 3675 60  0001 C CNN
	1    12950 3700
	-1   0    0    1   
$EndComp
Wire Wire Line
	12700 3750 12800 3750
$Comp
L Device:D_Small D54
U 1 1 5FA92178
P 12600 3750
F 0 "D54" H 12600 3863 50  0000 C CNN
F 1 "D3:11" H 12600 3650 50  0000 C CNN
F 2 "Diode_SMD:D_SOD-123" V 12600 3750 50  0001 C CNN
F 3 "~" V 12600 3750 50  0001 C CNN
	1    12600 3750
	1    0    0    -1  
$EndComp
Wire Wire Line
	12500 3750 12450 3750
Wire Wire Line
	13000 3550 13000 3500
$Comp
L MxSwitch:MX-NoLED MX51
U 1 1 5FA92180
P 13950 3700
F 0 "MX51" H 13822 3645 60  0000 R CNN
F 1 "MX3:12" H 13822 3719 20  0000 R CNN
F 2 "CherryOnly:MXOnly-1U-NoLED" H 13325 3675 60  0001 C CNN
F 3 "" H 13325 3675 60  0001 C CNN
	1    13950 3700
	-1   0    0    1   
$EndComp
Wire Wire Line
	13700 3750 13800 3750
$Comp
L Device:D_Small D55
U 1 1 5FA92187
P 13600 3750
F 0 "D55" H 13600 3863 50  0000 C CNN
F 1 "D3:12" H 13600 3650 50  0000 C CNN
F 2 "Diode_SMD:D_SOD-123" V 13600 3750 50  0001 C CNN
F 3 "~" V 13600 3750 50  0001 C CNN
	1    13600 3750
	1    0    0    -1  
$EndComp
Wire Wire Line
	13500 3750 13450 3750
Wire Wire Line
	14000 3550 14000 3500
$Comp
L MxSwitch:MX-NoLED MX53
U 1 1 5FAA8997
P 1950 4200
F 0 "MX53" H 1822 4145 60  0000 R CNN
F 1 "MX4:0" H 1822 4219 20  0000 R CNN
F 2 "CherryOnly:MXOnly-1.5U-NoLED" H 1325 4175 60  0001 C CNN
F 3 "" H 1325 4175 60  0001 C CNN
	1    1950 4200
	-1   0    0    1   
$EndComp
Wire Wire Line
	1700 4250 1800 4250
$Comp
L Device:D_Small D57
U 1 1 5FAA899E
P 1600 4250
F 0 "D57" H 1600 4363 50  0000 C CNN
F 1 "D4:0" H 1600 4150 50  0000 C CNN
F 2 "Diode_SMD:D_SOD-123" V 1600 4250 50  0001 C CNN
F 3 "~" V 1600 4250 50  0001 C CNN
	1    1600 4250
	1    0    0    -1  
$EndComp
Wire Wire Line
	1500 4250 1450 4250
Wire Wire Line
	2000 4050 2000 4000
$Comp
L MxSwitch:MX-NoLED MX54
U 1 1 5FAA89A6
P 2950 4200
F 0 "MX54" H 2822 4145 60  0000 R CNN
F 1 "MX4:1" H 2822 4219 20  0000 R CNN
F 2 "CherryOnly:MXOnly-1.25U-NoLED" H 2325 4175 60  0001 C CNN
F 3 "" H 2325 4175 60  0001 C CNN
	1    2950 4200
	-1   0    0    1   
$EndComp
Wire Wire Line
	2700 4250 2800 4250
$Comp
L Device:D_Small D58
U 1 1 5FAA89AD
P 2600 4250
F 0 "D58" H 2600 4363 50  0000 C CNN
F 1 "D4:1" H 2600 4150 50  0000 C CNN
F 2 "Diode_SMD:D_SOD-123" V 2600 4250 50  0001 C CNN
F 3 "~" V 2600 4250 50  0001 C CNN
	1    2600 4250
	1    0    0    -1  
$EndComp
Wire Wire Line
	2500 4250 2450 4250
Wire Wire Line
	3000 4050 3000 4000
$Comp
L MxSwitch:MX-NoLED MX55
U 1 1 5FAA89B5
P 3950 4200
F 0 "MX55" H 3822 4145 60  0000 R CNN
F 1 "MX4:2" H 3822 4219 20  0000 R CNN
F 2 "CherryOnly:MXOnly-1.25U-NoLED" H 3325 4175 60  0001 C CNN
F 3 "" H 3325 4175 60  0001 C CNN
	1    3950 4200
	-1   0    0    1   
$EndComp
Wire Wire Line
	3700 4250 3800 4250
$Comp
L Device:D_Small D59
U 1 1 5FAA89BC
P 3600 4250
F 0 "D59" H 3600 4363 50  0000 C CNN
F 1 "D4:2" H 3600 4150 50  0000 C CNN
F 2 "Diode_SMD:D_SOD-123" V 3600 4250 50  0001 C CNN
F 3 "~" V 3600 4250 50  0001 C CNN
	1    3600 4250
	1    0    0    -1  
$EndComp
Wire Wire Line
	3500 4250 3450 4250
Wire Wire Line
	4000 4050 4000 4000
$Comp
L MxSwitch:MX-NoLED MX56
U 1 1 5FAA89D3
P 5950 4200
F 0 "MX56" H 5822 4145 60  0000 R CNN
F 1 "MX4:4" H 5822 4219 20  0000 R CNN
F 2 "CherryOnly:MXOnly-1.5U-NoLED" H 5325 4175 60  0001 C CNN
F 3 "" H 5325 4175 60  0001 C CNN
	1    5950 4200
	-1   0    0    1   
$EndComp
Wire Wire Line
	5700 4250 5800 4250
$Comp
L Device:D_Small D60
U 1 1 5FAA89DA
P 5600 4250
F 0 "D60" H 5600 4363 50  0000 C CNN
F 1 "D4:4" H 5600 4150 50  0000 C CNN
F 2 "Diode_SMD:D_SOD-123" V 5600 4250 50  0001 C CNN
F 3 "~" V 5600 4250 50  0001 C CNN
	1    5600 4250
	1    0    0    -1  
$EndComp
Wire Wire Line
	5500 4250 5450 4250
Wire Wire Line
	6000 4050 6000 4000
$Comp
L MxSwitch:MX-NoLED MX57
U 1 1 5FAA89F1
P 7950 4200
F 0 "MX57" H 7822 4145 60  0000 R CNN
F 1 "MX4:6" H 7822 4219 20  0000 R CNN
F 2 "CherryOnly:MXOnly-2U-ReversedStabilizers-NoLED" H 7325 4175 60  0001 C CNN
F 3 "" H 7325 4175 60  0001 C CNN
	1    7950 4200
	-1   0    0    1   
$EndComp
Wire Wire Line
	7700 4250 7800 4250
$Comp
L Device:D_Small D61
U 1 1 5FAA89F8
P 7600 4250
F 0 "D61" H 7600 4363 50  0000 C CNN
F 1 "D4:6" H 7600 4150 50  0000 C CNN
F 2 "Diode_SMD:D_SOD-123" V 7600 4250 50  0001 C CNN
F 3 "~" V 7600 4250 50  0001 C CNN
	1    7600 4250
	1    0    0    -1  
$EndComp
Wire Wire Line
	7500 4250 7450 4250
Wire Wire Line
	8000 4050 8000 4000
$Comp
L MxSwitch:MX-NoLED MX58
U 1 1 5FAA8A0F
P 9950 4200
F 0 "MX58" H 9822 4145 60  0000 R CNN
F 1 "MX4:8" H 9822 4219 20  0000 R CNN
F 2 "CherryOnly:MXOnly-1.5U-NoLED" H 9325 4175 60  0001 C CNN
F 3 "" H 9325 4175 60  0001 C CNN
	1    9950 4200
	-1   0    0    1   
$EndComp
Wire Wire Line
	9700 4250 9800 4250
$Comp
L Device:D_Small D62
U 1 1 5FAA8A16
P 9600 4250
F 0 "D62" H 9600 4363 50  0000 C CNN
F 1 "D4:8" H 9600 4150 50  0000 C CNN
F 2 "Diode_SMD:D_SOD-123" V 9600 4250 50  0001 C CNN
F 3 "~" V 9600 4250 50  0001 C CNN
	1    9600 4250
	1    0    0    -1  
$EndComp
Wire Wire Line
	9500 4250 9450 4250
Wire Wire Line
	10000 4050 10000 4000
$Comp
L MxSwitch:MX-NoLED MX59
U 1 1 5FAA8A1E
P 10950 4200
F 0 "MX59" H 10822 4145 60  0000 R CNN
F 1 "MX4:9" H 10822 4219 20  0000 R CNN
F 2 "CherryOnly:MXOnly-1U-NoLED" H 10325 4175 60  0001 C CNN
F 3 "" H 10325 4175 60  0001 C CNN
	1    10950 4200
	-1   0    0    1   
$EndComp
Wire Wire Line
	10700 4250 10800 4250
$Comp
L Device:D_Small D63
U 1 1 5FAA8A25
P 10600 4250
F 0 "D63" H 10600 4363 50  0000 C CNN
F 1 "D4:9" H 10600 4150 50  0000 C CNN
F 2 "Diode_SMD:D_SOD-123" V 10600 4250 50  0001 C CNN
F 3 "~" V 10600 4250 50  0001 C CNN
	1    10600 4250
	1    0    0    -1  
$EndComp
Wire Wire Line
	10500 4250 10450 4250
Wire Wire Line
	11000 4050 11000 4000
$Comp
L MxSwitch:MX-NoLED MX60
U 1 1 5FAA8A2D
P 11950 4200
F 0 "MX60" H 11822 4145 60  0000 R CNN
F 1 "MX4:10" H 11822 4219 20  0000 R CNN
F 2 "CherryOnly:MXOnly-1U-NoLED" H 11325 4175 60  0001 C CNN
F 3 "" H 11325 4175 60  0001 C CNN
	1    11950 4200
	-1   0    0    1   
$EndComp
Wire Wire Line
	11700 4250 11800 4250
$Comp
L Device:D_Small D64
U 1 1 5FAA8A34
P 11600 4250
F 0 "D64" H 11600 4363 50  0000 C CNN
F 1 "D4:10" H 11600 4150 50  0000 C CNN
F 2 "Diode_SMD:D_SOD-123" V 11600 4250 50  0001 C CNN
F 3 "~" V 11600 4250 50  0001 C CNN
	1    11600 4250
	1    0    0    -1  
$EndComp
Wire Wire Line
	11500 4250 11450 4250
Wire Wire Line
	12000 4050 12000 4000
$Comp
L MxSwitch:MX-NoLED MX61
U 1 1 5FAA8A3C
P 12950 4200
F 0 "MX61" H 12822 4145 60  0000 R CNN
F 1 "MX4:11" H 12822 4219 20  0000 R CNN
F 2 "CherryOnly:MXOnly-1U-NoLED" H 12325 4175 60  0001 C CNN
F 3 "" H 12325 4175 60  0001 C CNN
	1    12950 4200
	-1   0    0    1   
$EndComp
Wire Wire Line
	12700 4250 12800 4250
$Comp
L Device:D_Small D65
U 1 1 5FAA8A43
P 12600 4250
F 0 "D65" H 12600 4363 50  0000 C CNN
F 1 "D4:11" H 12600 4150 50  0000 C CNN
F 2 "Diode_SMD:D_SOD-123" V 12600 4250 50  0001 C CNN
F 3 "~" V 12600 4250 50  0001 C CNN
	1    12600 4250
	1    0    0    -1  
$EndComp
Wire Wire Line
	12500 4250 12450 4250
Wire Wire Line
	13000 4050 13000 4000
$Comp
L MxSwitch:MX-NoLED MX62
U 1 1 5FAA8A4B
P 13950 4200
F 0 "MX62" H 13822 4145 60  0000 R CNN
F 1 "MX4:12" H 13822 4219 20  0000 R CNN
F 2 "CherryOnly:MXOnly-1U-NoLED" H 13325 4175 60  0001 C CNN
F 3 "" H 13325 4175 60  0001 C CNN
	1    13950 4200
	-1   0    0    1   
$EndComp
Wire Wire Line
	13700 4250 13800 4250
$Comp
L Device:D_Small D66
U 1 1 5FAA8A52
P 13600 4250
F 0 "D66" H 13600 4363 50  0000 C CNN
F 1 "D4:12" H 13600 4150 50  0000 C CNN
F 2 "Diode_SMD:D_SOD-123" V 13600 4250 50  0001 C CNN
F 3 "~" V 13600 4250 50  0001 C CNN
	1    13600 4250
	1    0    0    -1  
$EndComp
Wire Wire Line
	13500 4250 13450 4250
Wire Wire Line
	14000 4050 14000 4000
$Comp
L MxSwitch:MX-NoLED MX11
U 1 1 5FB1628E
P 14950 2200
F 0 "MX11" H 14822 2145 60  0000 R CNN
F 1 "MX0:13" H 14822 2219 20  0000 R CNN
F 2 "CherryOnly:MXOnly-1.5U-NoLED" H 14325 2175 60  0001 C CNN
F 3 "" H 14325 2175 60  0001 C CNN
	1    14950 2200
	-1   0    0    1   
$EndComp
Wire Wire Line
	14700 2250 14800 2250
$Comp
L Device:D_Small D15
U 1 1 5FB16295
P 14600 2250
F 0 "D15" H 14600 2363 50  0000 C CNN
F 1 "D0:13" H 14600 2150 50  0000 C CNN
F 2 "Diode_SMD:D_SOD-123" V 14600 2250 50  0001 C CNN
F 3 "~" V 14600 2250 50  0001 C CNN
	1    14600 2250
	1    0    0    -1  
$EndComp
Wire Wire Line
	14500 2250 14450 2250
Wire Wire Line
	15000 2050 15000 2000
$Comp
L MxSwitch:MX-NoLED MX25
U 1 1 5FB1629D
P 14950 2700
F 0 "MX25" H 14822 2645 60  0000 R CNN
F 1 "MX1:13" H 14822 2719 20  0000 R CNN
F 2 "CherryOnly:MXOnly-1.5U-NoLED" H 14325 2675 60  0001 C CNN
F 3 "" H 14325 2675 60  0001 C CNN
	1    14950 2700
	-1   0    0    1   
$EndComp
Wire Wire Line
	14700 2750 14800 2750
$Comp
L Device:D_Small D29
U 1 1 5FB162A4
P 14600 2750
F 0 "D29" H 14600 2863 50  0000 C CNN
F 1 "D1:13" H 14600 2650 50  0000 C CNN
F 2 "Diode_SMD:D_SOD-123" V 14600 2750 50  0001 C CNN
F 3 "~" V 14600 2750 50  0001 C CNN
	1    14600 2750
	1    0    0    -1  
$EndComp
Wire Wire Line
	14500 2750 14450 2750
Wire Wire Line
	15000 2550 15000 2500
$Comp
L MxSwitch:MX-NoLED MX39
U 1 1 5FB162AC
P 14950 3200
F 0 "MX39" H 14822 3145 60  0000 R CNN
F 1 "MX2:13" H 14822 3219 20  0000 R CNN
F 2 "CherryOnly:MXOnly-1.5U-NoLED" H 14325 3175 60  0001 C CNN
F 3 "" H 14325 3175 60  0001 C CNN
	1    14950 3200
	-1   0    0    1   
$EndComp
Wire Wire Line
	14700 3250 14800 3250
$Comp
L Device:D_Small D43
U 1 1 5FB162B3
P 14600 3250
F 0 "D43" H 14600 3363 50  0000 C CNN
F 1 "D2:13" H 14600 3150 50  0000 C CNN
F 2 "Diode_SMD:D_SOD-123" V 14600 3250 50  0001 C CNN
F 3 "~" V 14600 3250 50  0001 C CNN
	1    14600 3250
	1    0    0    -1  
$EndComp
Wire Wire Line
	14500 3250 14450 3250
Wire Wire Line
	15000 3050 15000 3000
$Comp
L MxSwitch:MX-NoLED MX52
U 1 1 5FB162BB
P 14950 3700
F 0 "MX52" H 14822 3645 60  0000 R CNN
F 1 "MX3:13" H 14822 3719 20  0000 R CNN
F 2 "CherryOnly:MXOnly-1.5U-NoLED" H 14325 3675 60  0001 C CNN
F 3 "" H 14325 3675 60  0001 C CNN
	1    14950 3700
	-1   0    0    1   
$EndComp
Wire Wire Line
	14700 3750 14800 3750
$Comp
L Device:D_Small D56
U 1 1 5FB162C2
P 14600 3750
F 0 "D56" H 14600 3863 50  0000 C CNN
F 1 "D3:13" H 14600 3650 50  0000 C CNN
F 2 "Diode_SMD:D_SOD-123" V 14600 3750 50  0001 C CNN
F 3 "~" V 14600 3750 50  0001 C CNN
	1    14600 3750
	1    0    0    -1  
$EndComp
Wire Wire Line
	14500 3750 14450 3750
Wire Wire Line
	15000 3550 15000 3500
$Comp
L MxSwitch:MX-NoLED MX63
U 1 1 5FB162CA
P 14950 4200
F 0 "MX63" H 14822 4145 60  0000 R CNN
F 1 "MX4:13" H 14822 4219 20  0000 R CNN
F 2 "CherryOnly:MXOnly-1U-NoLED" H 14325 4175 60  0001 C CNN
F 3 "" H 14325 4175 60  0001 C CNN
	1    14950 4200
	-1   0    0    1   
$EndComp
Wire Wire Line
	14700 4250 14800 4250
$Comp
L Device:D_Small D67
U 1 1 5FB162D1
P 14600 4250
F 0 "D67" H 14600 4363 50  0000 C CNN
F 1 "D4:13" H 14600 4150 50  0000 C CNN
F 2 "Diode_SMD:D_SOD-123" V 14600 4250 50  0001 C CNN
F 3 "~" V 14600 4250 50  0001 C CNN
	1    14600 4250
	1    0    0    -1  
$EndComp
Wire Wire Line
	14500 4250 14450 4250
Wire Wire Line
	15000 4050 15000 4000
$Comp
L MxSwitch:MX-NoLED MX5
U 1 1 5FA46546
P 5950 2200
F 0 "MX5" H 5822 2145 60  0000 R CNN
F 1 "MX0:4" H 5822 2219 20  0000 R CNN
F 2 "CherryOnly:MXOnly-1U-NoLED" H 5325 2175 60  0001 C CNN
F 3 "" H 5325 2175 60  0001 C CNN
	1    5950 2200
	-1   0    0    1   
$EndComp
$Comp
L MxSwitch:MX-LED MXL1
U 1 1 5FB2DFDE
P 6950 2200
F 0 "MXL1" H 6822 2081 60  0000 R CNN
F 1 "MX0:5" H 6822 2155 20  0000 R CNN
F 2 "CherryOnly:MXOnly-1U" H 6325 2175 60  0001 C CNN
F 3 "" H 6325 2175 60  0001 C CNN
	1    6950 2200
	-1   0    0    1   
$EndComp
$Comp
L MxSwitch:MX-LED MXL2
U 1 1 5FB3219D
P 7950 2200
F 0 "MXL2" H 7822 2081 60  0000 R CNN
F 1 "MX0:6" H 7822 2155 20  0000 R CNN
F 2 "CherryOnly:MXOnly-1U" H 7325 2175 60  0001 C CNN
F 3 "" H 7325 2175 60  0001 C CNN
	1    7950 2200
	-1   0    0    1   
$EndComp
$Comp
L MxSwitch:MX-LED MXL3
U 1 1 5FB3EAE0
P 8950 2200
F 0 "MXL3" H 8822 2081 60  0000 R CNN
F 1 "MX0:7" H 8822 2155 20  0000 R CNN
F 2 "CherryOnly:MXOnly-1U" H 8325 2175 60  0001 C CNN
F 3 "" H 8325 2175 60  0001 C CNN
	1    8950 2200
	-1   0    0    1   
$EndComp
Wire Wire Line
	2000 2000 3000 2000
Connection ~ 3000 2000
Wire Wire Line
	3000 2000 4000 2000
Connection ~ 4000 2000
Wire Wire Line
	4000 2000 5000 2000
Connection ~ 5000 2000
Wire Wire Line
	5000 2000 6000 2000
Connection ~ 6000 2000
Wire Wire Line
	6000 2000 7000 2000
Connection ~ 7000 2000
Wire Wire Line
	7000 2000 8000 2000
Connection ~ 8000 2000
Wire Wire Line
	8000 2000 9000 2000
Connection ~ 9000 2000
Wire Wire Line
	9000 2000 10000 2000
Connection ~ 10000 2000
Wire Wire Line
	10000 2000 11000 2000
Connection ~ 11000 2000
Wire Wire Line
	11000 2000 12000 2000
Connection ~ 12000 2000
Wire Wire Line
	12000 2000 13000 2000
Connection ~ 13000 2000
Wire Wire Line
	13000 2000 14000 2000
Connection ~ 14000 2000
Wire Wire Line
	14000 2000 15000 2000
Wire Wire Line
	15000 2500 14000 2500
Connection ~ 3000 2500
Wire Wire Line
	3000 2500 2000 2500
Connection ~ 4000 2500
Wire Wire Line
	4000 2500 3000 2500
Connection ~ 5000 2500
Wire Wire Line
	5000 2500 4000 2500
Connection ~ 6000 2500
Wire Wire Line
	6000 2500 5000 2500
Connection ~ 7000 2500
Wire Wire Line
	7000 2500 6000 2500
Connection ~ 8000 2500
Wire Wire Line
	8000 2500 7000 2500
Connection ~ 9000 2500
Wire Wire Line
	9000 2500 8000 2500
Connection ~ 10000 2500
Wire Wire Line
	10000 2500 9000 2500
Connection ~ 11000 2500
Wire Wire Line
	11000 2500 10000 2500
Connection ~ 12000 2500
Wire Wire Line
	12000 2500 11000 2500
Connection ~ 13000 2500
Wire Wire Line
	13000 2500 12000 2500
Connection ~ 14000 2500
Wire Wire Line
	14000 2500 13000 2500
Wire Wire Line
	2000 3000 3000 3000
Connection ~ 3000 3000
Wire Wire Line
	3000 3000 4000 3000
Connection ~ 4000 3000
Wire Wire Line
	4000 3000 5000 3000
Connection ~ 5000 3000
Wire Wire Line
	5000 3000 6000 3000
Connection ~ 6000 3000
Wire Wire Line
	6000 3000 7000 3000
Connection ~ 7000 3000
Wire Wire Line
	7000 3000 8000 3000
Connection ~ 8000 3000
Wire Wire Line
	8000 3000 9000 3000
Connection ~ 9000 3000
Wire Wire Line
	9000 3000 10000 3000
Connection ~ 10000 3000
Wire Wire Line
	10000 3000 11000 3000
Connection ~ 11000 3000
Wire Wire Line
	11000 3000 12000 3000
Connection ~ 12000 3000
Wire Wire Line
	12000 3000 13000 3000
Connection ~ 13000 3000
Wire Wire Line
	13000 3000 14000 3000
Connection ~ 14000 3000
Wire Wire Line
	14000 3000 15000 3000
Wire Wire Line
	15000 3500 14000 3500
Connection ~ 3000 3500
Wire Wire Line
	3000 3500 2000 3500
Connection ~ 4000 3500
Wire Wire Line
	4000 3500 3000 3500
Connection ~ 5000 3500
Wire Wire Line
	5000 3500 4000 3500
Connection ~ 6000 3500
Wire Wire Line
	6000 3500 5000 3500
Connection ~ 7000 3500
Wire Wire Line
	7000 3500 6000 3500
Connection ~ 9000 3500
Wire Wire Line
	9000 3500 7000 3500
Connection ~ 10000 3500
Wire Wire Line
	10000 3500 9000 3500
Connection ~ 11000 3500
Wire Wire Line
	11000 3500 10000 3500
Connection ~ 12000 3500
Wire Wire Line
	12000 3500 11000 3500
Connection ~ 13000 3500
Wire Wire Line
	13000 3500 12000 3500
Connection ~ 14000 3500
Wire Wire Line
	14000 3500 13000 3500
Wire Wire Line
	2000 4000 3000 4000
Connection ~ 3000 4000
Wire Wire Line
	3000 4000 4000 4000
Connection ~ 4000 4000
Wire Wire Line
	4000 4000 6000 4000
Connection ~ 6000 4000
Wire Wire Line
	6000 4000 8000 4000
Connection ~ 8000 4000
Wire Wire Line
	8000 4000 10000 4000
Connection ~ 10000 4000
Wire Wire Line
	10000 4000 11000 4000
Connection ~ 11000 4000
Wire Wire Line
	11000 4000 12000 4000
Connection ~ 12000 4000
Wire Wire Line
	12000 4000 13000 4000
Connection ~ 13000 4000
Wire Wire Line
	13000 4000 14000 4000
Connection ~ 14000 4000
Wire Wire Line
	14000 4000 15000 4000
Wire Wire Line
	14450 2250 14450 2750
Connection ~ 14450 2750
Wire Wire Line
	14450 2750 14450 3250
Connection ~ 14450 3250
Wire Wire Line
	14450 3250 14450 3750
Connection ~ 14450 3750
Wire Wire Line
	14450 3750 14450 4250
Connection ~ 14450 4250
Wire Wire Line
	14450 4250 14450 4500
Wire Wire Line
	13450 2250 13450 2750
Connection ~ 13450 2750
Wire Wire Line
	13450 2750 13450 3250
Connection ~ 13450 3250
Wire Wire Line
	13450 3250 13450 3750
Connection ~ 13450 3750
Wire Wire Line
	13450 3750 13450 4250
Connection ~ 13450 4250
Wire Wire Line
	13450 4250 13450 4500
Wire Wire Line
	12450 2250 12450 2750
Connection ~ 12450 2750
Wire Wire Line
	12450 2750 12450 3250
Connection ~ 12450 3250
Wire Wire Line
	12450 3250 12450 3750
Connection ~ 12450 3750
Wire Wire Line
	12450 3750 12450 4250
Connection ~ 12450 4250
Wire Wire Line
	12450 4250 12450 4500
Wire Wire Line
	11450 2250 11450 2750
Connection ~ 11450 2750
Wire Wire Line
	11450 2750 11450 3250
Connection ~ 11450 3250
Wire Wire Line
	11450 3250 11450 3750
Connection ~ 11450 3750
Wire Wire Line
	11450 3750 11450 4250
Connection ~ 11450 4250
Wire Wire Line
	11450 4250 11450 4500
Wire Wire Line
	10450 2250 10450 2750
Connection ~ 10450 2750
Wire Wire Line
	10450 2750 10450 3250
Connection ~ 10450 3250
Wire Wire Line
	10450 3250 10450 3750
Connection ~ 10450 3750
Wire Wire Line
	10450 3750 10450 4250
Connection ~ 10450 4250
Wire Wire Line
	10450 4250 10450 4500
Wire Wire Line
	9450 2250 9450 2750
Connection ~ 9450 2750
Wire Wire Line
	9450 2750 9450 3250
Connection ~ 9450 3250
Wire Wire Line
	9450 3250 9450 3750
Connection ~ 9450 3750
Wire Wire Line
	9450 3750 9450 4250
Connection ~ 9450 4250
Wire Wire Line
	9450 4250 9450 4500
Wire Wire Line
	8450 2250 8450 2750
Connection ~ 8450 2750
Wire Wire Line
	8450 2750 8450 3250
Connection ~ 8450 3250
Wire Wire Line
	8450 3250 8450 3750
Connection ~ 8450 3750
Wire Wire Line
	8450 3750 8450 4500
Wire Wire Line
	7450 2250 7450 2750
Connection ~ 7450 2750
Wire Wire Line
	7450 2750 7450 3250
Connection ~ 7450 3250
Wire Wire Line
	7450 3250 7450 4250
Connection ~ 7450 4250
Wire Wire Line
	7450 4250 7450 4500
Wire Wire Line
	6450 2250 6450 2750
Connection ~ 6450 2750
Wire Wire Line
	6450 2750 6450 3250
Connection ~ 6450 3250
Wire Wire Line
	6450 3250 6450 3750
Connection ~ 6450 3750
Wire Wire Line
	6450 3750 6450 4450
Wire Wire Line
	5450 2250 5450 2750
Connection ~ 5450 2750
Wire Wire Line
	5450 2750 5450 3250
Connection ~ 5450 3250
Wire Wire Line
	5450 3250 5450 3750
Connection ~ 5450 3750
Wire Wire Line
	5450 3750 5450 4250
Connection ~ 5450 4250
Wire Wire Line
	5450 4250 5450 4500
Wire Wire Line
	4450 2250 4450 2750
Connection ~ 4450 2750
Wire Wire Line
	4450 2750 4450 3250
Connection ~ 4450 3250
Wire Wire Line
	4450 3250 4450 3750
Connection ~ 4450 3750
Wire Wire Line
	4450 3750 4450 4500
Wire Wire Line
	3450 2250 3450 2750
Connection ~ 3450 2750
Wire Wire Line
	3450 2750 3450 3250
Connection ~ 3450 3250
Wire Wire Line
	3450 3250 3450 3750
Connection ~ 3450 3750
Wire Wire Line
	3450 3750 3450 4250
Connection ~ 3450 4250
Wire Wire Line
	3450 4250 3450 4500
Wire Wire Line
	2450 2250 2450 2750
Connection ~ 2450 2750
Wire Wire Line
	2450 2750 2450 3250
Connection ~ 2450 3250
Wire Wire Line
	2450 3250 2450 3750
Connection ~ 2450 3750
Wire Wire Line
	2450 3750 2450 4250
Connection ~ 2450 4250
Wire Wire Line
	2450 4250 2450 4500
Wire Wire Line
	1450 2250 1450 2750
Connection ~ 1450 2750
Wire Wire Line
	1450 2750 1450 3250
Connection ~ 1450 3250
Wire Wire Line
	1450 3250 1450 3750
Connection ~ 1450 3750
Wire Wire Line
	1450 3750 1450 4250
Connection ~ 1450 4250
Wire Wire Line
	1450 4250 1450 4500
Wire Wire Line
	8950 2100 8950 1550
Wire Wire Line
	7950 2100 7950 1550
Connection ~ 7950 1550
Wire Wire Line
	8850 2200 8850 1800
Wire Wire Line
	8850 1800 8800 1800
Wire Wire Line
	7850 2200 7850 1800
Wire Wire Line
	7850 1800 7800 1800
Wire Wire Line
	6950 1550 6950 2100
Wire Wire Line
	6950 1550 7950 1550
Wire Wire Line
	6850 2200 6850 1800
Wire Wire Line
	6850 1800 6800 1800
$Comp
L Device:R_Small R9
U 1 1 5EC89885
P 8700 1800
F 0 "R9" V 8504 1800 50  0000 C CNN
F 1 "200" V 8595 1800 50  0000 C CNN
F 2 "Resistor_SMD:R_1206_3216Metric" H 8700 1800 50  0001 C CNN
F 3 "~" H 8700 1800 50  0001 C CNN
	1    8700 1800
	0    1    1    0   
$EndComp
$Comp
L Device:R_Small R8
U 1 1 5EC8B58F
P 7700 1800
F 0 "R8" V 7504 1800 50  0000 C CNN
F 1 "200" V 7595 1800 50  0000 C CNN
F 2 "Resistor_SMD:R_1206_3216Metric" H 7700 1800 50  0001 C CNN
F 3 "~" H 7700 1800 50  0001 C CNN
	1    7700 1800
	0    1    1    0   
$EndComp
$Comp
L Device:R_Small R7
U 1 1 5ECAB110
P 6700 1800
F 0 "R7" V 6504 1800 50  0000 C CNN
F 1 "200" V 6595 1800 50  0000 C CNN
F 2 "Resistor_SMD:R_1206_3216Metric" H 6700 1800 50  0001 C CNN
F 3 "~" H 6700 1800 50  0001 C CNN
	1    6700 1800
	0    1    1    0   
$EndComp
Text HLabel 6550 1800 0    50   Input ~ 0
LED1
Wire Wire Line
	6600 1800 6550 1800
Text HLabel 7550 1800 0    50   Input ~ 0
LED2
Wire Wire Line
	7550 1800 7600 1800
Text HLabel 8550 1800 0    50   Input ~ 0
LED3
Wire Wire Line
	8550 1800 8600 1800
Wire Wire Line
	1200 2000 2000 2000
Connection ~ 2000 2000
Wire Wire Line
	2000 2500 1200 2500
Connection ~ 2000 2500
Wire Wire Line
	2000 3000 1200 3000
Connection ~ 2000 3000
Connection ~ 2000 3500
Wire Wire Line
	1200 3500 2000 3500
Connection ~ 2000 4000
Wire Wire Line
	1200 4000 2000 4000
Text HLabel 1200 2500 0    50   UnSpc ~ 0
ROW1
Text HLabel 1200 2000 0    50   UnSpc ~ 0
ROW0
Text HLabel 1200 3000 0    50   UnSpc ~ 0
ROW2
Text HLabel 1200 3500 0    50   UnSpc ~ 0
ROW3
Text HLabel 1200 4000 0    50   UnSpc ~ 0
ROW4
Text HLabel 1450 4500 3    50   UnSpc ~ 0
COL0
Text HLabel 2450 4500 3    50   UnSpc ~ 0
COL1
Text HLabel 3450 4500 3    50   UnSpc ~ 0
COL2
Text HLabel 4450 4500 3    50   UnSpc ~ 0
COL3
Text HLabel 5450 4500 3    50   UnSpc ~ 0
COL4
Text HLabel 6450 4450 3    50   UnSpc ~ 0
COL5
Text HLabel 7450 4500 3    50   UnSpc ~ 0
COL6
Text HLabel 8450 4500 3    50   UnSpc ~ 0
COL7
Text HLabel 9450 4500 3    50   UnSpc ~ 0
COL8
Text HLabel 10450 4500 3    50   UnSpc ~ 0
COL9
Text HLabel 11450 4500 3    50   UnSpc ~ 0
COL10
Text HLabel 12450 4500 3    50   UnSpc ~ 0
COL11
Text HLabel 13450 4500 3    50   UnSpc ~ 0
COL12
Text HLabel 14450 4500 3    50   UnSpc ~ 0
COL13
$Comp
L power:GND #PWR?
U 1 1 5F3F438C
P 7950 1550
AR Path="/5F3F438C" Ref="#PWR?"  Part="1" 
AR Path="/5EB52372/5F3F438C" Ref="#PWR020"  Part="1" 
F 0 "#PWR020" H 7950 1300 50  0001 C CNN
F 1 "GND" H 7955 1377 50  0000 C CNN
F 2 "" H 7950 1550 50  0001 C CNN
F 3 "" H 7950 1550 50  0001 C CNN
	1    7950 1550
	-1   0    0    1   
$EndComp
$Comp
L MxSwitch:MX-LED MXL4
U 1 1 5EC5F2D9
P 7950 2700
F 0 "MXL4" H 7822 2581 60  0000 R CNN
F 1 "MX1:6" H 7822 2655 20  0000 R CNN
F 2 "CherryOnly:MXOnly-1.5U-Vertical" H 7325 2675 60  0001 C CNN
F 3 "" H 7325 2675 60  0001 C CNN
	1    7950 2700
	-1   0    0    1   
$EndComp
$Comp
L MxSwitch:MX-LED MXL5
U 1 1 5ED108C9
P 7950 3200
F 0 "MXL5" H 7822 3081 60  0000 R CNN
F 1 "MX2:6" H 7822 3155 20  0000 R CNN
F 2 "CherryOnly:MXOnly-1.5U-Vertical" H 7325 3175 60  0001 C CNN
F 3 "" H 7325 3175 60  0001 C CNN
	1    7950 3200
	-1   0    0    1   
$EndComp
Wire Wire Line
	7950 1550 8950 1550
$Comp
L power:GND #PWR?
U 1 1 5EDDDFA0
P 7900 2550
AR Path="/5EDDDFA0" Ref="#PWR?"  Part="1" 
AR Path="/5EB52372/5EDDDFA0" Ref="#PWR017"  Part="1" 
F 0 "#PWR017" H 7900 2300 50  0001 C CNN
F 1 "GND" H 7905 2377 50  0000 C CNN
F 2 "" H 7900 2550 50  0001 C CNN
F 3 "" H 7900 2550 50  0001 C CNN
	1    7900 2550
	0    1    1    0   
$EndComp
$Comp
L power:GND #PWR?
U 1 1 5EE003EF
P 7900 3050
AR Path="/5EE003EF" Ref="#PWR?"  Part="1" 
AR Path="/5EB52372/5EE003EF" Ref="#PWR019"  Part="1" 
F 0 "#PWR019" H 7900 2800 50  0001 C CNN
F 1 "GND" H 7905 2877 50  0000 C CNN
F 2 "" H 7900 3050 50  0001 C CNN
F 3 "" H 7900 3050 50  0001 C CNN
	1    7900 3050
	0    1    1    0   
$EndComp
Wire Wire Line
	7900 2550 7950 2550
Wire Wire Line
	7950 2550 7950 2600
Wire Wire Line
	7900 3050 7950 3050
Wire Wire Line
	7950 3050 7950 3100
Wire Wire Line
	7700 3200 7850 3200
Wire Wire Line
	7850 2700 7700 2700
Text Label 7750 2700 0    50   ~ 0
L4
Text Label 7750 3200 0    50   ~ 0
L5
Wire Wire Line
	5250 1800 5200 1800
$Comp
L Device:R_Small R5
U 1 1 5EEDF318
P 5100 1800
F 0 "R5" V 4904 1800 50  0000 C CNN
F 1 "200" V 4995 1800 50  0000 C CNN
F 2 "Resistor_SMD:R_1206_3216Metric" H 5100 1800 50  0001 C CNN
F 3 "~" H 5100 1800 50  0001 C CNN
	1    5100 1800
	0    1    1    0   
$EndComp
Text HLabel 4950 1800 0    50   Input ~ 0
LED4
Wire Wire Line
	5000 1800 4950 1800
Wire Wire Line
	5950 1800 5900 1800
$Comp
L Device:R_Small R6
U 1 1 5EF02FD9
P 5800 1800
F 0 "R6" V 5604 1800 50  0000 C CNN
F 1 "200" V 5695 1800 50  0000 C CNN
F 2 "Resistor_SMD:R_1206_3216Metric" H 5800 1800 50  0001 C CNN
F 3 "~" H 5800 1800 50  0001 C CNN
	1    5800 1800
	0    1    1    0   
$EndComp
Text HLabel 5650 1800 0    50   Input ~ 0
LED5
Wire Wire Line
	5700 1800 5650 1800
Text Label 5250 1800 0    50   ~ 0
L4
Text Label 5950 1800 0    50   ~ 0
L5
$EndSCHEMATC
