(module MXST (layer F.Cu) (tedit 5EC2F99F)
  (fp_text reference MXST (at 7.14375 9.52373) (layer F.SilkS) hide
    (effects (font (size 1.524 1.524) (thickness 0.3048)))
  )
  (fp_text value VAL** (at 7.239 -7.112) (layer F.SilkS)
    (effects (font (size 1.524 1.524) (thickness 0.3048)))
  )
  (pad "" np_thru_hole circle (at 0 -6.985) (size 3.048 3.048) (drill 3.048) (layers *.Cu *.Mask))
  (pad "" np_thru_hole circle (at 0 8.255) (size 3.9802 3.9802) (drill 3.9802) (layers *.Cu *.Mask))
  (model cherry_mx1.wrl
    (at (xyz 0 0 0))
    (scale (xyz 1 1 1))
    (rotate (xyz 0 0 0))
  )
)
