(module MXOnly-2U-ReversedStabilizers-NoLED (layer F.Cu) (tedit 5EC2FB27)
  (fp_text reference REF** (at 0 8) (layer F.SilkS)
    (effects (font (size 1 1) (thickness 0.15)))
  )
  (fp_text value 2U (at 0 -7.9375) (layer F.SilkS)
    (effects (font (size 1 1) (thickness 0.15)))
  )
  (fp_line (start -19.05 9.525) (end -19.05 -9.525) (layer Dwgs.User) (width 0.15))
  (fp_line (start -19.05 9.525) (end 19.05 9.525) (layer Dwgs.User) (width 0.15))
  (fp_line (start 19.05 -9.525) (end 19.05 9.525) (layer Dwgs.User) (width 0.15))
  (fp_line (start -19.05 -9.525) (end 19.05 -9.525) (layer Dwgs.User) (width 0.15))
  (fp_line (start -7 -7) (end -7 -5) (layer F.SilkS) (width 0.15))
  (fp_line (start -5 -7) (end -7 -7) (layer F.SilkS) (width 0.15))
  (fp_line (start -7 7) (end -5 7) (layer F.SilkS) (width 0.15))
  (fp_line (start -7 5) (end -7 7) (layer F.SilkS) (width 0.15))
  (fp_line (start 7 7) (end 7 5) (layer F.SilkS) (width 0.15))
  (fp_line (start 5 7) (end 7 7) (layer F.SilkS) (width 0.15))
  (fp_line (start 7 -7) (end 7 -5) (layer F.SilkS) (width 0.15))
  (fp_line (start 5 -7) (end 7 -7) (layer F.SilkS) (width 0.15))
  (pad "" np_thru_hole circle (at 11.90625 -8.255) (size 3.9878 3.9878) (drill 3.9878) (layers *.Cu *.Mask))
  (pad "" np_thru_hole circle (at -11.90625 -8.255) (size 3.9878 3.9878) (drill 3.9878) (layers *.Cu *.Mask))
  (pad "" np_thru_hole circle (at 11.90625 6.985) (size 3.048 3.048) (drill 3.048) (layers *.Cu *.Mask))
  (pad "" np_thru_hole circle (at -11.90625 6.985) (size 3.048 3.048) (drill 3.048) (layers *.Cu *.Mask))
  (pad "" np_thru_hole circle (at 5.08 0 48.0996) (size 1.75 1.75) (drill 1.75) (layers *.Cu *.Mask))
  (pad "" np_thru_hole circle (at -5.08 0 48.0996) (size 1.75 1.75) (drill 1.75) (layers *.Cu *.Mask))
  (pad 1 thru_hole circle (at -3.81 -2.54) (size 2.25 2.25) (drill 1.47) (layers *.Cu B.Mask))
  (pad "" np_thru_hole circle (at 0 0) (size 3.9878 3.9878) (drill 3.9878) (layers *.Cu *.Mask))
  (pad 2 thru_hole circle (at 2.54 -5.08) (size 2.25 2.25) (drill 1.47) (layers *.Cu B.Mask))
)
